(module 1x5-SMD-PAD (layer F.Cu) (tedit 576233FC)
  (fp_text reference REF** (at 0.635 -1.5875) (layer F.SilkS)
    (effects (font (size 1 1) (thickness 0.15)))
  )
  (fp_text value 1x5-SMD-PAD (at 0.1905 1.5875) (layer F.Fab)
    (effects (font (size 1 1) (thickness 0.15)))
  )
  (pad 1 smd rect (at -3.048 0) (size 1 1.524) (layers F.Cu F.Paste F.Mask))
  (pad 2 smd rect (at -1.524 0) (size 1 1.524) (layers F.Cu F.Paste F.Mask))
  (pad 3 smd rect (at 0 0) (size 1 1.524) (layers F.Cu F.Paste F.Mask))
  (pad 4 smd rect (at 1.524 0) (size 1 1.524) (layers F.Cu F.Paste F.Mask))
  (pad 5 smd rect (at 3.048 0) (size 1 1.524) (layers F.Cu F.Paste F.Mask))
)
