(module 3-PIN-1.27mm (layer F.Cu) (tedit 0)
  (fp_text reference 3-PIN-1.27mm (at 0 -2.09042) (layer F.SilkS)
    (effects (font (size 1.00076 1.00076) (thickness 0.20066)))
  )
  (fp_text value VAL** (at 0 2.17932) (layer F.SilkS)
    (effects (font (size 1.00076 1.00076) (thickness 0.20066)))
  )
  (fp_line (start -2.31902 -1.09982) (end 2.31902 -1.09982) (layer F.SilkS) (width 0.20066))
  (fp_line (start 2.31902 -1.09982) (end 2.31902 1.09982) (layer F.SilkS) (width 0.20066))
  (fp_line (start 2.31902 1.09982) (end -2.31902 1.09982) (layer F.SilkS) (width 0.20066))
  (fp_line (start -2.31902 1.09982) (end -2.31902 -1.09982) (layer F.SilkS) (width 0.20066))
  (pad 3 thru_hole circle (at 1.27 0) (size 1.09982 1.09982) (drill 0.7493) (layers *.Cu *.Mask F.SilkS))
  (pad 1 thru_hole circle (at -1.27 0) (size 1.09982 1.09982) (drill 0.7493) (layers *.Cu *.Mask F.SilkS))
  (pad 2 thru_hole circle (at 0 0) (size 1.09982 1.09982) (drill 0.7493) (layers *.Cu *.Mask F.SilkS))
)
