(module CRYSTAL_CSTCE_vsmall (layer F.Cu) (tedit 584FD770)
  (fp_text reference X1 (at -2.5146 0) (layer F.SilkS) hide
    (effects (font (size 1 1) (thickness 0.15)))
  )
  (fp_text value CRYSTAL_SMD (at 0 2.159) (layer F.Fab)
    (effects (font (size 1 1) (thickness 0.15)))
  )
  (fp_line (start 0.381 1.016) (end 0.762 1.016) (layer F.SilkS) (width 0.15))
  (fp_line (start -0.762 1.016) (end -0.381 1.016) (layer F.SilkS) (width 0.15))
  (fp_line (start -1.651 -1.016) (end -1.651 1.016) (layer F.SilkS) (width 0.15))
  (fp_line (start -0.762 -1.016) (end -0.381 -1.016) (layer F.SilkS) (width 0.15))
  (fp_line (start 0.381 -1.016) (end 0.762 -1.016) (layer F.SilkS) (width 0.15))
  (fp_line (start 1.651 -1.016) (end 1.651 1.016) (layer F.SilkS) (width 0.15))
  (pad 3 smd rect (at 0 0) (size 0.5 2.1) (layers F.Cu F.Mask))
  (pad 2 smd rect (at 1.2 0) (size 0.5 2.1) (layers F.Cu F.Mask))
  (pad 1 smd rect (at -1.2 0) (size 0.5 2.1) (layers F.Cu F.Mask))
)
