(module DEANST-M (layer F.Cu) (tedit 5964980C)
  (fp_text reference REF** (at 0.6096 0) (layer F.SilkS)
    (effects (font (size 1 1) (thickness 0.15)))
  )
  (fp_text value DEANST-M (at 1.3716 -7.4676) (layer F.Fab)
    (effects (font (size 1 1) (thickness 0.15)))
  )
  (fp_text user + (at 2.75 5.6) (layer F.CrtYd)
    (effects (font (size 1 1) (thickness 0.15)))
  )
  (fp_text user - (at 2.85 -5.7) (layer F.CrtYd)
    (effects (font (size 1 1) (thickness 0.15)))
  )
  (fp_line (start 4 -0.3) (end 9.2 -0.3) (layer F.CrtYd) (width 0.05))
  (fp_line (start 9.2 -0.3) (end 9.2 -4.4) (layer F.CrtYd) (width 0.05))
  (fp_line (start 9.2 -4.4) (end 4 -4.4) (layer F.CrtYd) (width 0.05))
  (fp_line (start 4 -6.6) (end 4 -6.8) (layer F.CrtYd) (width 0.05))
  (fp_line (start -2.4 -6.6) (end -2.4 -6.8) (layer F.CrtYd) (width 0.05))
  (fp_line (start 4 4.1) (end 9.2 4.1) (layer F.CrtYd) (width 0.05))
  (fp_line (start 9.2 4.1) (end 9.2 2.95) (layer F.CrtYd) (width 0.05))
  (fp_line (start 9.2 2.95) (end 4 2.95) (layer F.CrtYd) (width 0.05))
  (fp_line (start -10.2 3.95) (end -10.2 2.95) (layer F.CrtYd) (width 0.05))
  (fp_line (start -2.4 -0.3) (end -10.2 -0.3) (layer F.CrtYd) (width 0.05))
  (fp_line (start -10.2 -0.3) (end -10.2 -4.4) (layer F.CrtYd) (width 0.05))
  (fp_line (start -10.2 -4.4) (end -2.4 -4.4) (layer F.CrtYd) (width 0.05))
  (fp_line (start -2.4 4.1) (end -10.2 4.1) (layer F.CrtYd) (width 0.05))
  (fp_line (start -10.2 4.1) (end -10.2 3.9) (layer F.CrtYd) (width 0.05))
  (fp_line (start -10.2 2.95) (end -2.4 2.95) (layer F.CrtYd) (width 0.05))
  (fp_line (start 4 -6.6) (end 4 -6.4) (layer F.CrtYd) (width 0.05))
  (fp_line (start -2.4 -6.6) (end -2.4 -6.4) (layer F.CrtYd) (width 0.05))
  (fp_line (start -2.4 6.8) (end -2.4 -6.4) (layer F.CrtYd) (width 0.05))
  (fp_line (start -2.4 -6.8) (end 4 -6.8) (layer F.CrtYd) (width 0.05))
  (fp_line (start 4 -6.4) (end 4 6.8) (layer F.CrtYd) (width 0.05))
  (fp_line (start 4 6.8) (end -2.4 6.8) (layer F.CrtYd) (width 0.05))
  (pad 2 smd rect (at 7.62 -2.95) (size 6.8 7.1) (layers F.Cu F.Mask)
    (solder_mask_margin 0.05))
  (pad 1 smd rect (at 7.62 2.275) (size 6.8 0.7) (layers F.Cu F.Mask)
    (solder_mask_margin 0.05))
  (pad 1 smd rect (at 10.6172 3.525) (size 0.8 2) (layers F.Cu F.Mask)
    (solder_mask_margin 0.05))
  (pad 1 smd rect (at 7.62 5.525) (size 6.8 2) (layers F.Cu F.Mask)
    (solder_mask_margin 0.05))
)
