(module DEMON_simple (layer F.Cu) (tedit 0)
  (fp_text reference G*** (at 0 0) (layer F.SilkS) hide
    (effects (font (size 1.524 1.524) (thickness 0.3)))
  )
  (fp_text value LOGO (at 0.75 0) (layer F.SilkS) hide
    (effects (font (size 1.524 1.524) (thickness 0.3)))
  )
  (fp_poly (pts (xy -0.777759 4.027618) (xy -0.677648 4.040432) (xy -0.585694 4.065431) (xy -0.506769 4.102709)
    (xy -0.470877 4.128314) (xy -0.422041 4.182108) (xy -0.385295 4.249017) (xy -0.362935 4.322629)
    (xy -0.357254 4.396531) (xy -0.361751 4.433433) (xy -0.370533 4.47675) (xy -1.1176 4.47675)
    (xy -1.11753 4.505854) (xy -1.107235 4.565819) (xy -1.078992 4.619927) (xy -1.036317 4.663697)
    (xy -0.982724 4.692646) (xy -0.967512 4.697173) (xy -0.909775 4.706306) (xy -0.842632 4.709083)
    (xy -0.776653 4.705654) (xy -0.722408 4.696168) (xy -0.713968 4.693581) (xy -0.675026 4.674831)
    (xy -0.636911 4.648116) (xy -0.62865 4.640676) (xy -0.59055 4.603774) (xy -0.51435 4.634944)
    (xy -0.453089 4.661692) (xy -0.414161 4.682898) (xy -0.395765 4.699629) (xy -0.3937 4.706341)
    (xy -0.401979 4.719122) (xy -0.423218 4.74081) (xy -0.441325 4.756893) (xy -0.508102 4.800705)
    (xy -0.592249 4.836159) (xy -0.686673 4.860592) (xy -0.737296 4.868038) (xy -0.798422 4.87408)
    (xy -0.844875 4.876638) (xy -0.887036 4.875693) (xy -0.935291 4.871227) (xy -0.9652 4.867637)
    (xy -1.064944 4.849734) (xy -1.144659 4.822573) (xy -1.208017 4.784516) (xy -1.255411 4.737985)
    (xy -1.290188 4.689501) (xy -1.314461 4.639593) (xy -1.329656 4.583242) (xy -1.3372 4.515428)
    (xy -1.338662 4.445) (xy -1.33468 4.359663) (xy -1.329396 4.328584) (xy -1.106612 4.328584)
    (xy -0.851756 4.328584) (xy -0.751126 4.328031) (xy -0.675566 4.326377) (xy -0.62516 4.323625)
    (xy -0.599993 4.319777) (xy -0.5969 4.317475) (xy -0.604938 4.294214) (xy -0.625114 4.264241)
    (xy -0.651525 4.235743) (xy -0.662369 4.2267) (xy -0.719184 4.197922) (xy -0.794185 4.1835)
    (xy -0.87707 4.182919) (xy -0.961866 4.195402) (xy -1.027749 4.221474) (xy -1.074299 4.260902)
    (xy -1.09836 4.304771) (xy -1.106612 4.328584) (xy -1.329396 4.328584) (xy -1.322943 4.290638)
    (xy -1.301939 4.233721) (xy -1.270157 4.184705) (xy -1.230154 4.143022) (xy -1.162334 4.096326)
    (xy -1.078313 4.061343) (xy -0.982963 4.038168) (xy -0.881154 4.026894) (xy -0.777759 4.027618)) (layer F.SilkS) (width 0.01))
  (fp_poly (pts (xy 2.160861 4.024207) (xy 2.265203 4.033805) (xy 2.351008 4.052889) (xy 2.423294 4.083025)
    (xy 2.487077 4.125778) (xy 2.487425 4.12606) (xy 2.539965 4.178443) (xy 2.577244 4.239428)
    (xy 2.600936 4.312651) (xy 2.612421 4.397375) (xy 2.611001 4.504374) (xy 2.591409 4.599731)
    (xy 2.554353 4.682353) (xy 2.500538 4.751143) (xy 2.430671 4.805007) (xy 2.345459 4.84285)
    (xy 2.320369 4.850061) (xy 2.240156 4.864832) (xy 2.147536 4.872554) (xy 2.054323 4.872556)
    (xy 2.00025 4.868249) (xy 1.887264 4.847627) (xy 1.794342 4.814649) (xy 1.720279 4.76853)
    (xy 1.663868 4.708485) (xy 1.623905 4.633731) (xy 1.618793 4.619884) (xy 1.607969 4.571349)
    (xy 1.60282 4.50908) (xy 1.603069 4.450292) (xy 1.822574 4.450292) (xy 1.823727 4.500087)
    (xy 1.828189 4.536355) (xy 1.837691 4.566695) (xy 1.853967 4.598707) (xy 1.857999 4.605657)
    (xy 1.882439 4.642561) (xy 1.907902 4.666891) (xy 1.943145 4.686231) (xy 1.958793 4.69297)
    (xy 2.038692 4.715003) (xy 2.127526 4.720098) (xy 2.21615 4.708354) (xy 2.270879 4.68608)
    (xy 2.320616 4.64846) (xy 2.358831 4.601271) (xy 2.37434 4.568373) (xy 2.384363 4.519756)
    (xy 2.387075 4.461268) (xy 2.383047 4.40012) (xy 2.37285 4.343526) (xy 2.357056 4.298699)
    (xy 2.352331 4.290227) (xy 2.312584 4.240285) (xy 2.263194 4.205805) (xy 2.200503 4.185271)
    (xy 2.120852 4.177166) (xy 2.07956 4.177145) (xy 2.002529 4.18322) (xy 1.943596 4.198606)
    (xy 1.897131 4.225055) (xy 1.880861 4.239045) (xy 1.856071 4.267294) (xy 1.839077 4.299762)
    (xy 1.828658 4.340874) (xy 1.823592 4.395053) (xy 1.822574 4.450292) (xy 1.603069 4.450292)
    (xy 1.603114 4.439932) (xy 1.608621 4.370757) (xy 1.619109 4.308409) (xy 1.630653 4.268778)
    (xy 1.671164 4.190136) (xy 1.727792 4.126897) (xy 1.801074 4.078814) (xy 1.891551 4.045637)
    (xy 1.99976 4.027118) (xy 2.126241 4.023009) (xy 2.160861 4.024207)) (layer F.SilkS) (width 0.01))
  (fp_poly (pts (xy 4.366073 3.900646) (xy 4.455854 3.902526) (xy 4.527432 3.906456) (xy 4.584392 3.913023)
    (xy 4.630322 3.922815) (xy 4.668809 3.936419) (xy 4.703439 3.954423) (xy 4.7378 3.977415)
    (xy 4.741326 3.979987) (xy 4.792398 4.028585) (xy 4.823682 4.086096) (xy 4.83614 4.154964)
    (xy 4.833787 4.214835) (xy 4.819042 4.290549) (xy 4.792206 4.349754) (xy 4.750946 4.395484)
    (xy 4.692929 4.430771) (xy 4.656231 4.445689) (xy 4.608344 4.458922) (xy 4.549057 4.469912)
    (xy 4.499293 4.475562) (xy 4.407537 4.482042) (xy 4.632643 4.638317) (xy 4.729538 4.705863)
    (xy 4.807607 4.760925) (xy 4.867858 4.804243) (xy 4.911298 4.836559) (xy 4.938935 4.858611)
    (xy 4.951776 4.871142) (xy 4.953 4.873768) (xy 4.94312 4.877109) (xy 4.937125 4.876628)
    (xy 4.918842 4.875485) (xy 4.880697 4.874053) (xy 4.828223 4.872512) (xy 4.766951 4.871043)
    (xy 4.765356 4.871009) (xy 4.609462 4.867678) (xy 4.422456 4.711809) (xy 4.362343 4.662198)
    (xy 4.304505 4.615362) (xy 4.252695 4.574273) (xy 4.210664 4.541901) (xy 4.182166 4.521218)
    (xy 4.17942 4.519392) (xy 4.123391 4.482844) (xy 4.130923 4.673664) (xy 4.138455 4.864485)
    (xy 3.895577 4.864485) (xy 3.904041 4.752638) (xy 3.906433 4.71013) (xy 3.908426 4.653159)
    (xy 3.910018 4.584796) (xy 3.911206 4.508115) (xy 3.911988 4.426186) (xy 3.912364 4.342081)
    (xy 3.91233 4.258873) (xy 3.912052 4.209133) (xy 4.1275 4.209133) (xy 4.1275 4.342433)
    (xy 4.283075 4.335633) (xy 4.348622 4.331995) (xy 4.409616 4.32723) (xy 4.458929 4.321977)
    (xy 4.487897 4.317254) (xy 4.545386 4.296256) (xy 4.58123 4.26478) (xy 4.596603 4.22164)
    (xy 4.5974 4.206831) (xy 4.592255 4.158079) (xy 4.575205 4.120737) (xy 4.543824 4.093573)
    (xy 4.495688 4.075351) (xy 4.428371 4.064838) (xy 4.339449 4.060798) (xy 4.310211 4.06066)
    (xy 4.249362 4.061363) (xy 4.197358 4.063056) (xy 4.159714 4.065484) (xy 4.141945 4.068393)
    (xy 4.141936 4.068398) (xy 4.134881 4.083111) (xy 4.130153 4.118578) (xy 4.127787 4.174473)
    (xy 4.1275 4.209133) (xy 3.912052 4.209133) (xy 3.911886 4.179633) (xy 3.91103 4.107433)
    (xy 3.909759 4.045346) (xy 3.908073 3.996442) (xy 3.905968 3.963794) (xy 3.90451 3.953312)
    (xy 3.901026 3.928281) (xy 3.909107 3.915898) (xy 3.932518 3.908639) (xy 3.955518 3.906255)
    (xy 3.999702 3.904122) (xy 4.060854 3.90235) (xy 4.134757 3.901049) (xy 4.217197 3.90033)
    (xy 4.2545 3.900227) (xy 4.366073 3.900646)) (layer F.SilkS) (width 0.01))
  (fp_poly (pts (xy 5.703637 3.880809) (xy 5.786378 3.894405) (xy 5.807658 3.900081) (xy 5.859815 3.922603)
    (xy 5.915669 3.95791) (xy 5.967184 4.000012) (xy 6.006324 4.04292) (xy 6.013509 4.053513)
    (xy 6.027057 4.077404) (xy 6.027647 4.091215) (xy 6.014364 4.1035) (xy 6.007684 4.108067)
    (xy 5.979351 4.122164) (xy 5.938176 4.137144) (xy 5.913757 4.144266) (xy 5.847798 4.161592)
    (xy 5.796988 4.11925) (xy 5.736768 4.082439) (xy 5.665891 4.060363) (xy 5.589188 4.052347)
    (xy 5.511488 4.057721) (xy 5.437621 4.075811) (xy 5.372416 4.105944) (xy 5.320703 4.147449)
    (xy 5.291699 4.189609) (xy 5.273157 4.245873) (xy 5.263447 4.314343) (xy 5.262304 4.388538)
    (xy 5.269462 4.461977) (xy 5.284657 4.52818) (xy 5.307623 4.580664) (xy 5.307715 4.580814)
    (xy 5.345609 4.62758) (xy 5.393643 4.665782) (xy 5.439601 4.687744) (xy 5.478727 4.694795)
    (xy 5.533492 4.698209) (xy 5.594514 4.697986) (xy 5.652412 4.69413) (xy 5.693599 4.687671)
    (xy 5.731389 4.673213) (xy 5.773098 4.64892) (xy 5.792973 4.634022) (xy 5.843897 4.591585)
    (xy 5.928673 4.613435) (xy 5.985111 4.628527) (xy 6.020547 4.64025) (xy 6.038445 4.650919)
    (xy 6.04227 4.662851) (xy 6.035484 4.67836) (xy 6.032626 4.682929) (xy 5.980342 4.743563)
    (xy 5.908744 4.796235) (xy 5.823259 4.837771) (xy 5.729314 4.864997) (xy 5.717549 4.867183)
    (xy 5.651685 4.874562) (xy 5.572736 4.877359) (xy 5.492424 4.875553) (xy 5.42247 4.869122)
    (xy 5.413625 4.867761) (xy 5.316846 4.842183) (xy 5.229077 4.800183) (xy 5.15552 4.744749)
    (xy 5.111535 4.694358) (xy 5.076648 4.62893) (xy 5.053022 4.547352) (xy 5.040394 4.448466)
    (xy 5.037954 4.370917) (xy 5.043432 4.261143) (xy 5.060549 4.168585) (xy 5.090347 4.091225)
    (xy 5.133868 4.027042) (xy 5.192153 3.974016) (xy 5.265066 3.930701) (xy 5.332578 3.906334)
    (xy 5.417246 3.888763) (xy 5.512015 3.878387) (xy 5.609831 3.875603) (xy 5.703637 3.880809)) (layer F.SilkS) (width 0.01))
  (fp_poly (pts (xy 7.223241 4.027618) (xy 7.323352 4.040432) (xy 7.415306 4.065431) (xy 7.494231 4.102709)
    (xy 7.530123 4.128314) (xy 7.578959 4.182108) (xy 7.615705 4.249017) (xy 7.638065 4.322629)
    (xy 7.643746 4.396531) (xy 7.639249 4.433433) (xy 7.630467 4.47675) (xy 6.8834 4.47675)
    (xy 6.88347 4.505854) (xy 6.893765 4.565819) (xy 6.922008 4.619927) (xy 6.964683 4.663697)
    (xy 7.018276 4.692646) (xy 7.033488 4.697173) (xy 7.091225 4.706306) (xy 7.158368 4.709083)
    (xy 7.224347 4.705654) (xy 7.278592 4.696168) (xy 7.287032 4.693581) (xy 7.325974 4.674831)
    (xy 7.364089 4.648116) (xy 7.37235 4.640676) (xy 7.41045 4.603774) (xy 7.48665 4.634944)
    (xy 7.548377 4.661925) (xy 7.587504 4.683308) (xy 7.605596 4.700016) (xy 7.6073 4.705901)
    (xy 7.597354 4.722292) (xy 7.571156 4.745867) (xy 7.53416 4.772821) (xy 7.491823 4.799351)
    (xy 7.449602 4.821652) (xy 7.428079 4.830861) (xy 7.377016 4.846503) (xy 7.315086 4.860219)
    (xy 7.262979 4.868113) (xy 7.201975 4.874135) (xy 7.155554 4.876654) (xy 7.113244 4.875649)
    (xy 7.064575 4.871098) (xy 7.0358 4.867637) (xy 6.936056 4.849734) (xy 6.856341 4.822573)
    (xy 6.792983 4.784516) (xy 6.745589 4.737985) (xy 6.710812 4.689501) (xy 6.686539 4.639593)
    (xy 6.671344 4.583242) (xy 6.6638 4.515428) (xy 6.662338 4.445) (xy 6.66632 4.359663)
    (xy 6.671604 4.328584) (xy 6.894388 4.328584) (xy 7.149244 4.328584) (xy 7.249874 4.328031)
    (xy 7.325434 4.326377) (xy 7.37584 4.323625) (xy 7.401007 4.319777) (xy 7.4041 4.317475)
    (xy 7.396062 4.294214) (xy 7.375886 4.264241) (xy 7.349475 4.235743) (xy 7.338631 4.2267)
    (xy 7.281816 4.197922) (xy 7.206815 4.1835) (xy 7.12393 4.182919) (xy 7.039134 4.195402)
    (xy 6.973251 4.221474) (xy 6.926701 4.260902) (xy 6.90264 4.304771) (xy 6.894388 4.328584)
    (xy 6.671604 4.328584) (xy 6.678057 4.290638) (xy 6.699061 4.233721) (xy 6.730843 4.184705)
    (xy 6.770846 4.143022) (xy 6.838666 4.096326) (xy 6.922687 4.061343) (xy 7.018037 4.038168)
    (xy 7.119846 4.026894) (xy 7.223241 4.027618)) (layer F.SilkS) (width 0.01))
  (fp_poly (pts (xy -7.812415 4.021874) (xy -7.761767 4.024254) (xy -7.719617 4.027781) (xy -7.692686 4.032275)
    (xy -7.686961 4.034896) (xy -7.679742 4.050091) (xy -7.669419 4.081424) (xy -7.657414 4.124203)
    (xy -7.646059 4.169834) (xy -7.627724 4.240784) (xy -7.604022 4.321966) (xy -7.577243 4.406273)
    (xy -7.549677 4.486594) (xy -7.523614 4.555824) (xy -7.514872 4.577056) (xy -7.503171 4.602489)
    (xy -7.495161 4.610295) (xy -7.486769 4.603003) (xy -7.482756 4.59699) (xy -7.474042 4.579529)
    (xy -7.459071 4.545439) (xy -7.439256 4.49827) (xy -7.41601 4.441572) (xy -7.390744 4.378893)
    (xy -7.364872 4.313784) (xy -7.339807 4.249795) (xy -7.31696 4.190475) (xy -7.297746 4.139373)
    (xy -7.283576 4.10004) (xy -7.276952 4.079875) (xy -7.261226 4.026959) (xy -6.988105 4.026959)
    (xy -6.948665 4.15925) (xy -6.930665 4.216837) (xy -6.909652 4.279566) (xy -6.886859 4.34423)
    (xy -6.863519 4.407619) (xy -6.840865 4.466526) (xy -6.82013 4.51774) (xy -6.802545 4.558055)
    (xy -6.789345 4.584261) (xy -6.781947 4.593167) (xy -6.772185 4.583473) (xy -6.757143 4.556533)
    (xy -6.738058 4.515557) (xy -6.716166 4.463757) (xy -6.692704 4.404345) (xy -6.668909 4.340532)
    (xy -6.646018 4.27553) (xy -6.625268 4.212549) (xy -6.607895 4.154801) (xy -6.596684 4.112131)
    (xy -6.575441 4.022996) (xy -6.323536 4.022648) (xy -6.246214 4.022912) (xy -6.177921 4.023852)
    (xy -6.122588 4.025357) (xy -6.084151 4.027312) (xy -6.066542 4.029607) (xy -6.065918 4.030002)
    (xy -6.061361 4.042447) (xy -6.052408 4.071946) (xy -6.040103 4.114878) (xy -6.02549 4.167624)
    (xy -6.014614 4.207825) (xy -5.993811 4.282004) (xy -5.971747 4.354655) (xy -5.949412 4.423092)
    (xy -5.92779 4.484631) (xy -5.907871 4.536589) (xy -5.890641 4.576281) (xy -5.877087 4.601023)
    (xy -5.868197 4.608131) (xy -5.867542 4.607718) (xy -5.859712 4.594529) (xy -5.845561 4.564522)
    (xy -5.826462 4.521055) (xy -5.803784 4.467483) (xy -5.778901 4.407162) (xy -5.753182 4.343447)
    (xy -5.728 4.279696) (xy -5.704725 4.219264) (xy -5.684729 4.165507) (xy -5.671312 4.1275)
    (xy -5.637135 4.026959) (xy -5.36436 4.026959) (xy -5.33029 4.144586) (xy -5.314154 4.197132)
    (xy -5.294474 4.256289) (xy -5.27246 4.31894) (xy -5.249319 4.381971) (xy -5.226259 4.442266)
    (xy -5.204489 4.496709) (xy -5.185217 4.542184) (xy -5.169651 4.575575) (xy -5.159 4.593767)
    (xy -5.155255 4.59594) (xy -5.143685 4.578468) (xy -5.127002 4.543977) (xy -5.106487 4.495932)
    (xy -5.08342 4.437799) (xy -5.05908 4.373042) (xy -5.034748 4.305129) (xy -5.011704 4.237523)
    (xy -4.991228 4.173692) (xy -4.9746 4.117101) (xy -4.965776 4.082978) (xy -4.951427 4.022581)
    (xy -4.439499 4.026959) (xy -4.399081 4.180417) (xy -4.372974 4.275171) (xy -4.346112 4.364698)
    (xy -4.319704 4.445348) (xy -4.294961 4.513475) (xy -4.273093 4.565428) (xy -4.26765 4.57658)
    (xy -4.246138 4.61879) (xy -4.20463 4.523958) (xy -4.177426 4.459762) (xy -4.145718 4.381643)
    (xy -4.11202 4.296021) (xy -4.078847 4.209316) (xy -4.048711 4.127949) (xy -4.038942 4.100783)
    (xy -4.012467 4.026441) (xy -3.742707 4.028687) (xy -3.701483 4.165406) (xy -3.678879 4.237305)
    (xy -3.654605 4.309207) (xy -3.629736 4.378451) (xy -3.605346 4.442375) (xy -3.582508 4.498317)
    (xy -3.562296 4.543615) (xy -3.545785 4.575608) (xy -3.534049 4.591634) (xy -3.529335 4.592042)
    (xy -3.521614 4.577305) (xy -3.507707 4.54623) (xy -3.489236 4.502619) (xy -3.467827 4.450273)
    (xy -3.454425 4.416707) (xy -3.421942 4.33222) (xy -3.394784 4.255456) (xy -3.370275 4.178222)
    (xy -3.345741 4.092323) (xy -3.332807 4.044239) (xy -3.328673 4.032627) (xy -3.320404 4.025528)
    (xy -3.30296 4.022116) (xy -3.271298 4.021565) (xy -3.220377 4.023047) (xy -3.206628 4.023544)
    (xy -3.153883 4.026113) (xy -3.111167 4.029404) (xy -3.084532 4.03289) (xy -3.07897 4.034664)
    (xy -3.080761 4.046301) (xy -3.091261 4.073593) (xy -3.108875 4.112847) (xy -3.132008 4.160372)
    (xy -3.140492 4.177068) (xy -3.206806 4.311386) (xy -3.274007 4.45694) (xy -3.337829 4.604242)
    (xy -3.38636 4.724058) (xy -3.408986 4.780596) (xy -3.427938 4.820025) (xy -3.447191 4.84542)
    (xy -3.470721 4.859857) (xy -3.502504 4.86641) (xy -3.546514 4.868155) (xy -3.572702 4.868189)
    (xy -3.624702 4.867837) (xy -3.660951 4.864811) (xy -3.685524 4.855814) (xy -3.702496 4.837553)
    (xy -3.71594 4.806732) (xy -3.729931 4.760056) (xy -3.736798 4.735479) (xy -3.751715 4.684694)
    (xy -3.770016 4.626297) (xy -3.790548 4.563558) (xy -3.812157 4.499746) (xy -3.833689 4.438132)
    (xy -3.853991 4.381986) (xy -3.871909 4.334577) (xy -3.88629 4.299175) (xy -3.895981 4.279051)
    (xy -3.899012 4.275667) (xy -3.907949 4.285309) (xy -3.923053 4.3123) (xy -3.943116 4.353731)
    (xy -3.966928 4.406696) (xy -3.993278 4.468289) (xy -4.020957 4.535604) (xy -4.048756 4.605733)
    (xy -4.075464 4.675771) (xy -4.099871 4.74281) (xy -4.120768 4.803944) (xy -4.127131 4.823731)
    (xy -4.141423 4.869088) (xy -4.385153 4.863042) (xy -4.447737 4.693709) (xy -4.466262 4.645044)
    (xy -4.489487 4.586292) (xy -4.516164 4.520391) (xy -4.545045 4.450278) (xy -4.574884 4.378893)
    (xy -4.604432 4.309173) (xy -4.632442 4.244055) (xy -4.657667 4.186479) (xy -4.678859 4.139381)
    (xy -4.694771 4.105701) (xy -4.704155 4.088376) (xy -4.705377 4.086909) (xy -4.716257 4.086049)
    (xy -4.726376 4.101406) (xy -4.743764 4.133881) (xy -4.767137 4.180664) (xy -4.795209 4.238942)
    (xy -4.826695 4.305905) (xy -4.860309 4.378741) (xy -4.894767 4.454638) (xy -4.928782 4.530784)
    (xy -4.961071 4.60437) (xy -4.990347 4.672583) (xy -5.015325 4.732611) (xy -5.03472 4.781644)
    (xy -5.036907 4.787445) (xy -5.054913 4.827375) (xy -5.073734 4.850364) (xy -5.089925 4.858883)
    (xy -5.120268 4.864222) (xy -5.164479 4.867206) (xy -5.214072 4.867847) (xy -5.260562 4.866157)
    (xy -5.295466 4.862149) (xy -5.307447 4.858568) (xy -5.316532 4.845486) (xy -5.329927 4.815542)
    (xy -5.346176 4.772486) (xy -5.363822 4.720069) (xy -5.374154 4.686751) (xy -5.395289 4.618469)
    (xy -5.417869 4.54901) (xy -5.440802 4.481384) (xy -5.462993 4.418603) (xy -5.48335 4.363677)
    (xy -5.50078 4.319616) (xy -5.514189 4.289432) (xy -5.522483 4.276133) (xy -5.523405 4.275764)
    (xy -5.531136 4.285341) (xy -5.545302 4.311792) (xy -5.564502 4.351855) (xy -5.587336 4.402271)
    (xy -5.612403 4.459779) (xy -5.638302 4.521117) (xy -5.663633 4.583027) (xy -5.686996 4.642245)
    (xy -5.706988 4.695513) (xy -5.720899 4.735536) (xy -5.762724 4.863042) (xy -6.009348 4.863042)
    (xy -6.071223 4.692007) (xy -6.09104 4.639078) (xy -6.115684 4.576118) (xy -6.143775 4.506383)
    (xy -6.173933 4.433127) (xy -6.204775 4.359603) (xy -6.234921 4.289066) (xy -6.26299 4.22477)
    (xy -6.287602 4.16997) (xy -6.307374 4.127918) (xy -6.320927 4.10187) (xy -6.323254 4.098131)
    (xy -6.331304 4.091795) (xy -6.341375 4.097919) (xy -6.35594 4.119074) (xy -6.373549 4.150521)
    (xy -6.40024 4.20244) (xy -6.432972 4.269785) (xy -6.469648 4.347928) (xy -6.508169 4.432243)
    (xy -6.54644 4.518104) (xy -6.582361 4.600885) (xy -6.613837 4.67596) (xy -6.630199 4.716606)
    (xy -6.652394 4.772206) (xy -6.66902 4.810893) (xy -6.682146 4.835938) (xy -6.693846 4.850613)
    (xy -6.70619 4.858191) (xy -6.721252 4.861944) (xy -6.722335 4.862127) (xy -6.760325 4.866087)
    (xy -6.807928 4.867876) (xy -6.856993 4.867591) (xy -6.899372 4.865326) (xy -6.926917 4.86118)
    (xy -6.930922 4.859663) (xy -6.939005 4.847139) (xy -6.951764 4.81749) (xy -6.967908 4.774167)
    (xy -6.986144 4.720619) (xy -7.003232 4.666679) (xy -7.025132 4.59682) (xy -7.0487 4.524439)
    (xy -7.07178 4.455975) (xy -7.09222 4.397866) (xy -7.102084 4.371263) (xy -7.144399 4.260485)
    (xy -7.210714 4.405679) (xy -7.243226 4.479184) (xy -7.275523 4.55639) (xy -7.305938 4.632938)
    (xy -7.332801 4.704467) (xy -7.354445 4.766617) (xy -7.369199 4.815027) (xy -7.372617 4.828753)
    (xy -7.381527 4.868334) (xy -7.630898 4.868334) (xy -7.651187 4.807479) (xy -7.669513 4.755611)
    (xy -7.694872 4.688224) (xy -7.725508 4.609659) (xy -7.759667 4.524254) (xy -7.795591 4.436351)
    (xy -7.831527 4.350289) (xy -7.865718 4.270409) (xy -7.896409 4.201051) (xy -7.897154 4.199405)
    (xy -7.92168 4.144102) (xy -7.942037 4.095897) (xy -7.956884 4.058157) (xy -7.964882 4.034252)
    (xy -7.965578 4.027426) (xy -7.948142 4.023417) (xy -7.912323 4.021275) (xy -7.86484 4.020821)
    (xy -7.812415 4.021874)) (layer F.SilkS) (width 0.01))
  (fp_poly (pts (xy -2.750115 4.621475) (xy -2.71478 4.623723) (xy -2.698111 4.627219) (xy -2.69808 4.627244)
    (xy -2.693143 4.641712) (xy -2.690014 4.671467) (xy -2.688627 4.710688) (xy -2.688917 4.753553)
    (xy -2.690815 4.79424) (xy -2.694255 4.826927) (xy -2.699171 4.845794) (xy -2.700606 4.847655)
    (xy -2.717769 4.852425) (xy -2.75472 4.857329) (xy -2.805865 4.861763) (xy -2.860163 4.864884)
    (xy -3.006909 4.871438) (xy -3.016005 4.775671) (xy -3.020144 4.718291) (xy -3.019134 4.678335)
    (xy -3.011994 4.652347) (xy -2.997742 4.636869) (xy -2.975398 4.628446) (xy -2.974129 4.628165)
    (xy -2.945172 4.62451) (xy -2.901644 4.621992) (xy -2.850194 4.620631) (xy -2.797468 4.620452)
    (xy -2.750115 4.621475)) (layer F.SilkS) (width 0.01))
  (fp_poly (pts (xy -2.187834 3.88681) (xy -2.076591 3.888483) (xy -1.98734 3.890517) (xy -1.916675 3.893355)
    (xy -1.861189 3.897441) (xy -1.817474 3.903218) (xy -1.782124 3.911131) (xy -1.751732 3.921623)
    (xy -1.72289 3.935138) (xy -1.693886 3.951145) (xy -1.6243 4.003458) (xy -1.566793 4.072139)
    (xy -1.522403 4.154492) (xy -1.492167 4.247822) (xy -1.477124 4.349435) (xy -1.478313 4.456635)
    (xy -1.483203 4.498051) (xy -1.505457 4.594911) (xy -1.541958 4.674835) (xy -1.594186 4.739069)
    (xy -1.663623 4.788855) (xy -1.751749 4.825439) (xy -1.860043 4.850066) (xy -1.910152 4.856942)
    (xy -1.954383 4.860388) (xy -2.017607 4.863115) (xy -2.093787 4.86508) (xy -2.176887 4.866239)
    (xy -2.260869 4.866552) (xy -2.339697 4.865974) (xy -2.407333 4.864465) (xy -2.45774 4.861981)
    (xy -2.47015 4.860878) (xy -2.50825 4.85681) (xy -2.50825 4.505384) (xy -2.50856 4.41355)
    (xy -2.509089 4.358009) (xy -2.286 4.358009) (xy -2.285743 4.437249) (xy -2.285016 4.510071)
    (xy -2.283886 4.573653) (xy -2.282419 4.625172) (xy -2.280685 4.661805) (xy -2.278748 4.68073)
    (xy -2.278292 4.68226) (xy -2.271351 4.689326) (xy -2.255497 4.694132) (xy -2.226671 4.697078)
    (xy -2.180814 4.698567) (xy -2.113868 4.698999) (xy -2.109147 4.699) (xy -2.012752 4.697192)
    (xy -1.936903 4.691875) (xy -1.884734 4.683415) (xy -1.816899 4.656295) (xy -1.763052 4.613723)
    (xy -1.727906 4.559492) (xy -1.726562 4.556125) (xy -1.716724 4.515588) (xy -1.711263 4.460828)
    (xy -1.710076 4.398459) (xy -1.713064 4.335093) (xy -1.720124 4.277344) (xy -1.731155 4.231825)
    (xy -1.73154 4.230735) (xy -1.762668 4.170468) (xy -1.807503 4.120031) (xy -1.861396 4.084263)
    (xy -1.879402 4.076844) (xy -1.917882 4.068502) (xy -1.980595 4.061891) (xy -2.06645 4.057112)
    (xy -2.105025 4.055795) (xy -2.286 4.050498) (xy -2.286 4.358009) (xy -2.509089 4.358009)
    (xy -2.509435 4.321812) (xy -2.510799 4.234071) (xy -2.512572 4.154228) (xy -2.514677 4.086184)
    (xy -2.517034 4.033839) (xy -2.518034 4.018123) (xy -2.527818 3.882287) (xy -2.187834 3.88681)) (layer F.SilkS) (width 0.01))
  (fp_poly (pts (xy 1.067024 4.024478) (xy 1.164973 4.036401) (xy 1.243664 4.060561) (xy 1.305425 4.098046)
    (xy 1.352589 4.149941) (xy 1.359764 4.160987) (xy 1.374013 4.186851) (xy 1.385798 4.215627)
    (xy 1.395629 4.250154) (xy 1.404017 4.293273) (xy 1.411472 4.347822) (xy 1.418505 4.416642)
    (xy 1.425626 4.502571) (xy 1.428803 4.544957) (xy 1.434308 4.616671) (xy 1.439864 4.683019)
    (xy 1.445141 4.740495) (xy 1.449809 4.785594) (xy 1.453537 4.814811) (xy 1.454941 4.822346)
    (xy 1.463191 4.855734) (xy 1.366875 4.863255) (xy 1.312806 4.866047) (xy 1.262277 4.866236)
    (xy 1.225912 4.863792) (xy 1.224934 4.863644) (xy 1.179309 4.856511) (xy 1.189729 4.759235)
    (xy 1.193477 4.712181) (xy 1.196481 4.651049) (xy 1.198486 4.582924) (xy 1.199234 4.51489)
    (xy 1.19919 4.497917) (xy 1.197016 4.414942) (xy 1.190964 4.35025) (xy 1.180107 4.3011)
    (xy 1.16352 4.264752) (xy 1.140276 4.238467) (xy 1.10945 4.219503) (xy 1.104322 4.217209)
    (xy 1.060761 4.206102) (xy 1.002596 4.201314) (xy 0.938399 4.202464) (xy 0.876739 4.209175)
    (xy 0.82619 4.221065) (xy 0.80484 4.230479) (xy 0.769334 4.258764) (xy 0.742795 4.297141)
    (xy 0.724921 4.347386) (xy 0.71541 4.411274) (xy 0.713959 4.490581) (xy 0.720266 4.587082)
    (xy 0.729812 4.671091) (xy 0.738108 4.739642) (xy 0.742732 4.789635) (xy 0.743783 4.823443)
    (xy 0.741355 4.84344) (xy 0.737072 4.851007) (xy 0.719136 4.855906) (xy 0.683047 4.859668)
    (xy 0.635869 4.862159) (xy 0.58466 4.863244) (xy 0.536484 4.86279) (xy 0.498401 4.860662)
    (xy 0.477473 4.856727) (xy 0.476236 4.855961) (xy 0.474044 4.842818) (xy 0.476022 4.814529)
    (xy 0.481721 4.776766) (xy 0.483059 4.769653) (xy 0.488999 4.723924) (xy 0.492388 4.665086)
    (xy 0.493387 4.597998) (xy 0.492156 4.527517) (xy 0.488858 4.4585) (xy 0.483654 4.395803)
    (xy 0.476704 4.344286) (xy 0.468171 4.308804) (xy 0.467711 4.307551) (xy 0.438112 4.261686)
    (xy 0.39052 4.228638) (xy 0.328105 4.209514) (xy 0.254035 4.205424) (xy 0.195611 4.212346)
    (xy 0.127226 4.23518) (xy 0.073712 4.274634) (xy 0.037173 4.329026) (xy 0.031401 4.343445)
    (xy 0.02238 4.382887) (xy 0.016527 4.438519) (xy 0.01386 4.505527) (xy 0.0144 4.579098)
    (xy 0.018165 4.65442) (xy 0.025174 4.726678) (xy 0.029756 4.759238) (xy 0.036684 4.804852)
    (xy 0.039683 4.833715) (xy 0.038329 4.850043) (xy 0.032197 4.858048) (xy 0.020865 4.861946)
    (xy 0.019387 4.862281) (xy -0.009174 4.865308) (xy -0.053614 4.866606) (xy -0.104504 4.866241)
    (xy -0.152416 4.864278) (xy -0.18764 4.86083) (xy -0.204219 4.856569) (xy -0.211331 4.846998)
    (xy -0.210804 4.826418) (xy -0.20669 4.801417) (xy -0.203575 4.771709) (xy -0.201302 4.724551)
    (xy -0.19984 4.66365) (xy -0.199156 4.592711) (xy -0.199221 4.51544) (xy -0.200001 4.435541)
    (xy -0.201466 4.35672) (xy -0.203584 4.282682) (xy -0.206324 4.217133) (xy -0.209655 4.163779)
    (xy -0.212348 4.135438) (xy -0.223293 4.042834) (xy -0.127522 4.042689) (xy -0.07631 4.041723)
    (xy -0.031539 4.039315) (xy -0.002343 4.035971) (xy -0.001033 4.035696) (xy 0.020512 4.033003)
    (xy 0.023643 4.041132) (xy 0.021164 4.047349) (xy 0.01377 4.069422) (xy 0.006016 4.101203)
    (xy 0.004271 4.109905) (xy -0.004103 4.153959) (xy 0.050369 4.113079) (xy 0.118412 4.069391)
    (xy 0.187149 4.042337) (xy 0.26482 4.02933) (xy 0.323909 4.027181) (xy 0.382261 4.028534)
    (xy 0.426127 4.033763) (xy 0.466303 4.04471) (xy 0.49864 4.057018) (xy 0.543854 4.079145)
    (xy 0.584316 4.105176) (xy 0.604859 4.123026) (xy 0.638007 4.159242) (xy 0.678462 4.129643)
    (xy 0.770698 4.075004) (xy 0.871741 4.039943) (xy 0.982646 4.024173) (xy 1.067024 4.024478)) (layer F.SilkS) (width 0.01))
  (fp_poly (pts (xy 3.449194 4.027352) (xy 3.539868 4.058594) (xy 3.619825 4.106911) (xy 3.630204 4.115254)
    (xy 3.654485 4.137138) (xy 3.674149 4.159844) (xy 3.689799 4.185933) (xy 3.702041 4.217965)
    (xy 3.711478 4.258502) (xy 3.718716 4.310104) (xy 3.724359 4.375331) (xy 3.729011 4.456744)
    (xy 3.733041 4.550834) (xy 3.736331 4.626698) (xy 3.739974 4.696312) (xy 3.743762 4.756654)
    (xy 3.747486 4.804704) (xy 3.750939 4.837438) (xy 3.753736 4.851512) (xy 3.756684 4.86015)
    (xy 3.752854 4.86558) (xy 3.738231 4.868186) (xy 3.7088 4.868355) (xy 3.660546 4.866471)
    (xy 3.619147 4.864427) (xy 3.561453 4.861195) (xy 3.513843 4.857939) (xy 3.481577 4.855057)
    (xy 3.469992 4.853105) (xy 3.46989 4.841671) (xy 3.473322 4.813779) (xy 3.479663 4.77385)
    (xy 3.486701 4.734673) (xy 3.497338 4.661386) (xy 3.503298 4.582949) (xy 3.504734 4.503835)
    (xy 3.501797 4.428516) (xy 3.494639 4.361464) (xy 3.483412 4.307151) (xy 3.471088 4.274905)
    (xy 3.443565 4.236425) (xy 3.406934 4.210817) (xy 3.356957 4.196502) (xy 3.289395 4.191896)
    (xy 3.250616 4.192626) (xy 3.191574 4.196452) (xy 3.150817 4.203487) (xy 3.121329 4.215072)
    (xy 3.115532 4.218442) (xy 3.069529 4.258366) (xy 3.035271 4.314524) (xy 3.012615 4.387516)
    (xy 3.001416 4.477945) (xy 3.001534 4.58641) (xy 3.008033 4.671055) (xy 3.014093 4.727054)
    (xy 3.020148 4.777084) (xy 3.025598 4.816557) (xy 3.02984 4.840883) (xy 3.030781 4.844521)
    (xy 3.033202 4.85482) (xy 3.029982 4.861617) (xy 3.016979 4.865638) (xy 2.990054 4.867613)
    (xy 2.945065 4.868269) (xy 2.895354 4.868334) (xy 2.752447 4.868334) (xy 2.760785 4.818063)
    (xy 2.780648 4.658042) (xy 2.789847 4.486214) (xy 2.78825 4.310035) (xy 2.775722 4.13696)
    (xy 2.773378 4.11589) (xy 2.765289 4.046072) (xy 2.836936 4.039055) (xy 2.888274 4.036277)
    (xy 2.938909 4.037049) (xy 2.960604 4.03897) (xy 2.993298 4.044421) (xy 3.006994 4.052717)
    (xy 3.007876 4.069466) (xy 3.005965 4.080103) (xy 2.999305 4.114305) (xy 3.063071 4.078545)
    (xy 3.154741 4.038781) (xy 3.252443 4.017175) (xy 3.35199 4.013455) (xy 3.449194 4.027352)) (layer F.SilkS) (width 0.01))
  (fp_poly (pts (xy 6.433043 4.620134) (xy 6.5024 4.627356) (xy 6.5024 4.736637) (xy 6.501287 4.78268)
    (xy 6.498283 4.82044) (xy 6.49389 4.845164) (xy 6.490202 4.8522) (xy 6.473269 4.855244)
    (xy 6.436574 4.858738) (xy 6.38573 4.862224) (xy 6.33343 4.864938) (xy 6.188855 4.871395)
    (xy 6.180527 4.820762) (xy 6.175861 4.780902) (xy 6.172839 4.733031) (xy 6.1722 4.703656)
    (xy 6.172838 4.667317) (xy 6.176466 4.646853) (xy 6.185651 4.636976) (xy 6.202961 4.632398)
    (xy 6.207125 4.63173) (xy 6.306068 4.619656) (xy 6.389301 4.617241) (xy 6.433043 4.620134)) (layer F.SilkS) (width 0.01))
  (fp_poly (pts (xy 8.74395 4.445534) (xy 8.743922 4.551276) (xy 8.743764 4.637755) (xy 8.743358 4.706875)
    (xy 8.742589 4.760542) (xy 8.741342 4.800659) (xy 8.739501 4.82913) (xy 8.73695 4.84786)
    (xy 8.733574 4.858753) (xy 8.729256 4.863712) (xy 8.723882 4.864643) (xy 8.71855 4.863723)
    (xy 8.693612 4.860891) (xy 8.652005 4.858808) (xy 8.60246 4.857902) (xy 8.599402 4.857895)
    (xy 8.505655 4.85775) (xy 8.512469 4.815414) (xy 8.515519 4.791563) (xy 8.512202 4.781074)
    (xy 8.498586 4.783791) (xy 8.470737 4.799559) (xy 8.449247 4.812913) (xy 8.410969 4.831981)
    (xy 8.364159 4.849062) (xy 8.348804 4.853351) (xy 8.30186 4.860927) (xy 8.239281 4.86552)
    (xy 8.170601 4.86697) (xy 8.105358 4.865119) (xy 8.053087 4.859808) (xy 8.04545 4.858403)
    (xy 7.991786 4.842676) (xy 7.936528 4.818904) (xy 7.89076 4.792145) (xy 7.877795 4.781919)
    (xy 7.85614 4.757592) (xy 7.83218 4.7235) (xy 7.820645 4.70416) (xy 7.812266 4.688315)
    (xy 7.805666 4.672782) (xy 7.800631 4.654914) (xy 7.79695 4.632064) (xy 7.794412 4.601584)
    (xy 7.792805 4.560828) (xy 7.791916 4.507149) (xy 7.791535 4.437899) (xy 7.79145 4.350432)
    (xy 7.79145 4.026959) (xy 7.8994 4.024258) (xy 7.95087 4.024058) (xy 7.993552 4.025885)
    (xy 8.020332 4.029366) (xy 8.024466 4.030814) (xy 8.030865 4.037589) (xy 8.034169 4.051441)
    (xy 8.034317 4.07552) (xy 8.031249 4.112973) (xy 8.024903 4.16695) (xy 8.021291 4.194964)
    (xy 8.008367 4.309955) (xy 8.002448 4.406257) (xy 8.003727 4.485572) (xy 8.012396 4.549603)
    (xy 8.028647 4.600051) (xy 8.052673 4.638618) (xy 8.073726 4.659067) (xy 8.116094 4.686185)
    (xy 8.164238 4.702123) (xy 8.225735 4.708941) (xy 8.259485 4.709584) (xy 8.341992 4.702564)
    (xy 8.407201 4.6809) (xy 8.457141 4.643681) (xy 8.483256 4.609282) (xy 8.495019 4.588933)
    (xy 8.503486 4.569889) (xy 8.509191 4.548253) (xy 8.512666 4.520124) (xy 8.514445 4.481605)
    (xy 8.51506 4.428794) (xy 8.515077 4.376449) (xy 8.51439 4.308702) (xy 8.512676 4.240778)
    (xy 8.510156 4.178727) (xy 8.507054 4.128597) (xy 8.505255 4.108979) (xy 8.495705 4.021667)
    (xy 8.619827 4.021664) (xy 8.74395 4.021662) (xy 8.74395 4.445534)) (layer F.SilkS) (width 0.01))
  (fp_poly (pts (xy -6.335288 0.654416) (xy -6.130236 0.680646) (xy -5.938685 0.724203) (xy -5.761278 0.784954)
    (xy -5.66659 0.827294) (xy -5.628642 0.849031) (xy -5.579735 0.881586) (xy -5.52639 0.92042)
    (xy -5.478733 0.958011) (xy -5.424292 1.004325) (xy -5.384068 1.04274) (xy -5.35286 1.079002)
    (xy -5.325468 1.118855) (xy -5.310373 1.143992) (xy -5.287657 1.183704) (xy -5.269878 1.215934)
    (xy -5.259484 1.236182) (xy -5.2578 1.24061) (xy -5.2694 1.249849) (xy -5.301633 1.263617)
    (xy -5.350653 1.280803) (xy -5.41261 1.300295) (xy -5.483657 1.320983) (xy -5.559946 1.341755)
    (xy -5.637629 1.361501) (xy -5.712858 1.379109) (xy -5.781786 1.393468) (xy -5.797079 1.396328)
    (xy -5.901205 1.41529) (xy -5.934959 1.370828) (xy -5.97287 1.329166) (xy -6.024952 1.282712)
    (xy -6.083563 1.237524) (xy -6.141062 1.199658) (xy -6.1722 1.182802) (xy -6.213794 1.165657)
    (xy -6.268232 1.146999) (xy -6.323831 1.130826) (xy -6.3246 1.130627) (xy -6.366785 1.120591)
    (xy -6.406665 1.113656) (xy -6.450521 1.109278) (xy -6.504636 1.106914) (xy -6.575289 1.106024)
    (xy -6.61035 1.105959) (xy -6.707809 1.107265) (xy -6.78885 1.111049) (xy -6.849884 1.117108)
    (xy -6.8707 1.120696) (xy -6.986107 1.152378) (xy -7.079911 1.194559) (xy -7.153085 1.248041)
    (xy -7.206602 1.313621) (xy -7.241435 1.3921) (xy -7.251642 1.433739) (xy -7.257764 1.514646)
    (xy -7.242657 1.584208) (xy -7.20603 1.643063) (xy -7.147592 1.691851) (xy -7.128686 1.703023)
    (xy -7.076757 1.728097) (xy -7.018325 1.748795) (xy -6.950426 1.765574) (xy -6.870099 1.778888)
    (xy -6.774382 1.789194) (xy -6.660313 1.796946) (xy -6.524929 1.8026) (xy -6.47065 1.804203)
    (xy -6.274526 1.813232) (xy -6.100262 1.829447) (xy -5.945627 1.853327) (xy -5.808393 1.88535)
    (xy -5.686329 1.925991) (xy -5.577206 1.975729) (xy -5.52146 2.007402) (xy -5.428636 2.076594)
    (xy -5.349276 2.160802) (xy -5.286746 2.255622) (xy -5.244408 2.35665) (xy -5.238479 2.377921)
    (xy -5.225903 2.449134) (xy -5.22027 2.531066) (xy -5.221466 2.615956) (xy -5.229375 2.696044)
    (xy -5.243883 2.763568) (xy -5.24421 2.764639) (xy -5.293036 2.882778) (xy -5.363474 2.990063)
    (xy -5.455155 3.086249) (xy -5.567712 3.171092) (xy -5.700779 3.244349) (xy -5.853987 3.305774)
    (xy -6.02697 3.355124) (xy -6.17855 3.385612) (xy -6.288517 3.401204) (xy -6.409882 3.41344)
    (xy -6.535183 3.421911) (xy -6.656957 3.426211) (xy -6.767741 3.425932) (xy -6.8453 3.42199)
    (xy -7.009668 3.404918) (xy -7.154943 3.381559) (xy -7.286684 3.350714) (xy -7.410455 3.311188)
    (xy -7.47395 3.286625) (xy -7.617059 3.218921) (xy -7.742483 3.140728) (xy -7.848304 3.05355)
    (xy -7.932598 2.95889) (xy -7.974342 2.895112) (xy -7.993567 2.860473) (xy -8.007585 2.833819)
    (xy -8.013639 2.820415) (xy -8.0137 2.819988) (xy -8.002472 2.812319) (xy -7.971658 2.799004)
    (xy -7.925562 2.781583) (xy -7.868489 2.761596) (xy -7.804744 2.740584) (xy -7.738631 2.720087)
    (xy -7.71525 2.713181) (xy -7.64785 2.694555) (xy -7.577577 2.676839) (xy -7.508699 2.660913)
    (xy -7.445487 2.647655) (xy -7.392211 2.637943) (xy -7.353141 2.632656) (xy -7.332545 2.632673)
    (xy -7.330518 2.634024) (xy -7.318261 2.655192) (xy -7.295644 2.687249) (xy -7.267433 2.724083)
    (xy -7.238393 2.759579) (xy -7.213288 2.787623) (xy -7.203223 2.79736) (xy -7.120543 2.855228)
    (xy -7.018956 2.902089) (xy -6.901797 2.937161) (xy -6.772396 2.959664) (xy -6.634086 2.968817)
    (xy -6.491942 2.963986) (xy -6.347059 2.946795) (xy -6.224471 2.920956) (xy -6.123037 2.885983)
    (xy -6.041615 2.841387) (xy -5.979063 2.78668) (xy -5.937121 2.726853) (xy -5.905694 2.647478)
    (xy -5.896885 2.570565) (xy -5.91001 2.498521) (xy -5.944385 2.433756) (xy -5.999328 2.378679)
    (xy -6.044026 2.350128) (xy -6.0995 2.323501) (xy -6.158876 2.301687) (xy -6.225521 2.284128)
    (xy -6.302799 2.270265) (xy -6.394077 2.259539) (xy -6.502719 2.251389) (xy -6.632092 2.245258)
    (xy -6.68655 2.243367) (xy -6.812966 2.238858) (xy -6.918472 2.233897) (xy -7.007559 2.228055)
    (xy -7.084719 2.220902) (xy -7.154441 2.212009) (xy -7.221216 2.200947) (xy -7.289535 2.187286)
    (xy -7.3025 2.184484) (xy -7.450576 2.143174) (xy -7.579373 2.088086) (xy -7.688886 2.019224)
    (xy -7.779114 1.93659) (xy -7.850052 1.840185) (xy -7.901698 1.730014) (xy -7.907358 1.713584)
    (xy -7.918908 1.668312) (xy -7.926257 1.613134) (xy -7.929893 1.543588) (xy -7.930468 1.502834)
    (xy -7.930073 1.439231) (xy -7.927677 1.390882) (xy -7.922519 1.351899) (xy -7.913834 1.316395)
    (xy -7.901644 1.280584) (xy -7.847356 1.169623) (xy -7.771037 1.067281) (xy -7.674225 0.974281)
    (xy -7.558457 0.891346) (xy -7.42527 0.8192) (xy -7.276201 0.758568) (xy -7.112786 0.710172)
    (xy -6.936562 0.674737) (xy -6.749068 0.652986) (xy -6.5532 0.645643) (xy -6.335288 0.654416)) (layer F.SilkS) (width 0.01))
  (fp_poly (pts (xy -4.094435 0.762555) (xy -4.107108 0.906079) (xy -4.117548 1.033518) (xy -4.126022 1.149853)
    (xy -4.132802 1.260062) (xy -4.138156 1.369126) (xy -4.142354 1.482023) (xy -4.145666 1.603732)
    (xy -4.148361 1.739234) (xy -4.148833 1.767417) (xy -4.15076 1.998838) (xy -4.148496 2.213047)
    (xy -4.141795 2.413745) (xy -4.13041 2.604629) (xy -4.114095 2.789398) (xy -4.092605 2.971752)
    (xy -4.065694 3.155388) (xy -4.050441 3.247031) (xy -4.041375 3.301932) (xy -4.03424 3.34978)
    (xy -4.029591 3.386466) (xy -4.027983 3.407885) (xy -4.028281 3.411158) (xy -4.036497 3.416099)
    (xy -4.059052 3.417182) (xy -4.099195 3.41427) (xy -4.160179 3.407229) (xy -4.1783 3.404906)
    (xy -4.356542 3.388528) (xy -4.545708 3.383544) (xy -4.733917 3.39016) (xy -4.793486 3.393731)
    (xy -4.831603 3.394677) (xy -4.852046 3.392838) (xy -4.858591 3.388053) (xy -4.857997 3.384869)
    (xy -4.852273 3.364541) (xy -4.844398 3.326474) (xy -4.834884 3.27398) (xy -4.824242 3.210369)
    (xy -4.812983 3.138952) (xy -4.80162 3.063041) (xy -4.790664 2.985948) (xy -4.780626 2.910982)
    (xy -4.772017 2.841456) (xy -4.766715 2.794) (xy -4.757751 2.68792) (xy -4.75098 2.563888)
    (xy -4.74635 2.425037) (xy -4.743814 2.274499) (xy -4.74332 2.115405) (xy -4.74482 1.950889)
    (xy -4.748263 1.784083) (xy -4.753601 1.618119) (xy -4.760782 1.456128) (xy -4.769759 1.301245)
    (xy -4.78048 1.1566) (xy -4.792897 1.025326) (xy -4.795078 1.005417) (xy -4.802215 0.941364)
    (xy -4.809238 0.877893) (xy -4.815473 0.821131) (xy -4.820243 0.777205) (xy -4.821426 0.766152)
    (xy -4.829422 0.690929) (xy -4.792786 0.683377) (xy -4.770473 0.681126) (xy -4.72657 0.678693)
    (xy -4.664885 0.676212) (xy -4.589227 0.673822) (xy -4.503402 0.671659) (xy -4.420839 0.670023)
    (xy -4.085527 0.664222) (xy -4.094435 0.762555)) (layer F.SilkS) (width 0.01))
  (fp_poly (pts (xy 4.607371 0.661899) (xy 4.608732 0.662246) (xy 4.609192 0.673557) (xy 4.607371 0.702443)
    (xy 4.603571 0.745422) (xy 4.598095 0.799013) (xy 4.592495 0.849055) (xy 4.582055 0.941056)
    (xy 4.573212 1.024522) (xy 4.565792 1.102562) (xy 4.559626 1.178288) (xy 4.554542 1.254809)
    (xy 4.550368 1.335235) (xy 4.546934 1.422676) (xy 4.544069 1.520243) (xy 4.5416 1.631046)
    (xy 4.539357 1.758196) (xy 4.538159 1.836209) (xy 4.536662 1.975193) (xy 4.536262 2.111639)
    (xy 4.536904 2.243537) (xy 4.53853 2.368874) (xy 4.541085 2.48564) (xy 4.54451 2.591824)
    (xy 4.548749 2.685414) (xy 4.553747 2.7644) (xy 4.559445 2.82677) (xy 4.565788 2.870513)
    (xy 4.567537 2.878594) (xy 4.575175 2.910417) (xy 4.856162 2.910368) (xy 4.955625 2.909806)
    (xy 5.062745 2.908275) (xy 5.169244 2.905954) (xy 5.266838 2.903024) (xy 5.3467 2.899692)
    (xy 5.43771 2.894888) (xy 5.537442 2.889299) (xy 5.641599 2.883196) (xy 5.745885 2.87685)
    (xy 5.846004 2.870532) (xy 5.937659 2.864512) (xy 6.016556 2.859061) (xy 6.078397 2.85445)
    (xy 6.11684 2.851153) (xy 6.18213 2.844766) (xy 6.191793 3.001946) (xy 6.195012 3.12263)
    (xy 6.18932 3.230667) (xy 6.174949 3.323347) (xy 6.159469 3.378729) (xy 6.145606 3.418417)
    (xy 6.060478 3.416479) (xy 6.010369 3.414882) (xy 5.94515 3.412172) (xy 5.875042 3.408795)
    (xy 5.83565 3.406677) (xy 5.799465 3.405254) (xy 5.740327 3.4037) (xy 5.660685 3.402051)
    (xy 5.562985 3.400343) (xy 5.449674 3.398612) (xy 5.323199 3.396893) (xy 5.186007 3.395223)
    (xy 5.040545 3.393637) (xy 4.88926 3.392172) (xy 4.789378 3.391305) (xy 3.882806 3.383797)
    (xy 3.891669 3.276753) (xy 3.906678 3.057981) (xy 3.917145 2.821449) (xy 3.923119 2.570217)
    (xy 3.924647 2.307342) (xy 3.921776 2.035883) (xy 3.914553 1.758899) (xy 3.903027 1.479449)
    (xy 3.887244 1.200591) (xy 3.867251 0.925384) (xy 3.852602 0.756191) (xy 3.844476 0.668092)
    (xy 4.052663 0.673695) (xy 4.140994 0.675013) (xy 4.237645 0.674711) (xy 4.33227 0.672922)
    (xy 4.414522 0.669781) (xy 4.4323 0.668778) (xy 4.495414 0.665205) (xy 4.548822 0.662749)
    (xy 4.587735 0.661588) (xy 4.607371 0.661899)) (layer F.SilkS) (width 0.01))
  (fp_poly (pts (xy 0.163381 0.638247) (xy 0.1651 0.638444) (xy 0.27305 0.650875) (xy 0.271789 0.767292)
    (xy 0.271422 0.798017) (xy 0.270785 0.847789) (xy 0.269907 0.914486) (xy 0.268816 0.99599)
    (xy 0.267541 1.090181) (xy 0.26611 1.19494) (xy 0.264554 1.308147) (xy 0.262899 1.427682)
    (xy 0.261175 1.551426) (xy 0.260523 1.598084) (xy 0.258254 1.77864) (xy 0.256801 1.939469)
    (xy 0.25617 2.081998) (xy 0.256368 2.207655) (xy 0.257403 2.317868) (xy 0.259282 2.414065)
    (xy 0.262012 2.497674) (xy 0.265383 2.566459) (xy 0.273123 2.686256) (xy 0.282216 2.805812)
    (xy 0.292355 2.922243) (xy 0.303233 3.032667) (xy 0.314543 3.134202) (xy 0.32598 3.223964)
    (xy 0.337237 3.299071) (xy 0.348006 3.35664) (xy 0.350632 3.368146) (xy 0.357618 3.39725)
    (xy -0.423045 3.39725) (xy -0.415 3.246438) (xy -0.407405 3.090559) (xy -0.400635 2.924677)
    (xy -0.394796 2.753199) (xy -0.389998 2.580536) (xy -0.386348 2.411095) (xy -0.383955 2.249285)
    (xy -0.382926 2.099515) (xy -0.383369 1.966195) (xy -0.383446 1.95873) (xy -0.38735 1.594418)
    (xy -0.517925 1.79998) (xy -0.670032 2.043703) (xy -0.807665 2.273401) (xy -0.932196 2.491594)
    (xy -1.044996 2.700799) (xy -1.147437 2.903534) (xy -1.240891 3.102317) (xy -1.298304 3.232551)
    (xy -1.35255 3.358894) (xy -1.41605 3.377632) (xy -1.471229 3.388847) (xy -1.539713 3.395129)
    (xy -1.616172 3.396819) (xy -1.69528 3.39426) (xy -1.771708 3.387793) (xy -1.840129 3.377759)
    (xy -1.895215 3.3645) (xy -1.931639 3.348358) (xy -1.936859 3.344234) (xy -1.947785 3.328594)
    (xy -1.965501 3.296864) (xy -1.988048 3.252824) (xy -2.013468 3.200254) (xy -2.030565 3.163382)
    (xy -2.094502 3.027871) (xy -2.167083 2.883015) (xy -2.249054 2.727467) (xy -2.341159 2.559882)
    (xy -2.444146 2.378911) (xy -2.55876 2.183209) (xy -2.685746 1.971429) (xy -2.740922 1.880683)
    (xy -2.95275 1.533574) (xy -2.962742 1.753683) (xy -2.966857 1.881363) (xy -2.968402 2.021991)
    (xy -2.967532 2.172248) (xy -2.964404 2.328817) (xy -2.959171 2.488383) (xy -2.951989 2.647628)
    (xy -2.943014 2.803234) (xy -2.932402 2.951884) (xy -2.920306 3.090263) (xy -2.906883 3.215052)
    (xy -2.892288 3.322934) (xy -2.888018 3.349625) (xy -2.880969 3.391959) (xy -3.633235 3.391959)
    (xy -3.626025 3.339042) (xy -3.623276 3.313696) (xy -3.619282 3.26955) (xy -3.614217 3.208936)
    (xy -3.608255 3.134188) (xy -3.601572 3.047639) (xy -3.594342 2.951622) (xy -3.586741 2.848471)
    (xy -3.578943 2.740517) (xy -3.571123 2.630095) (xy -3.563456 2.519537) (xy -3.556118 2.411177)
    (xy -3.553426 2.370667) (xy -3.549535 2.297907) (xy -3.546125 2.205336) (xy -3.543218 2.094304)
    (xy -3.540837 1.966164) (xy -3.539005 1.822267) (xy -3.537744 1.663964) (xy -3.537077 1.492607)
    (xy -3.536971 1.388925) (xy -3.53695 0.655891) (xy -2.703124 0.661459) (xy -2.623568 0.836084)
    (xy -2.52984 1.03334) (xy -2.42267 1.243787) (xy -2.304123 1.46385) (xy -2.176262 1.689955)
    (xy -2.041152 1.918528) (xy -1.900858 2.145994) (xy -1.757444 2.368779) (xy -1.622213 2.569894)
    (xy -1.590742 2.615662) (xy -1.491261 2.46406) (xy -1.275587 2.120251) (xy -1.06975 1.761851)
    (xy -0.876888 1.394687) (xy -0.700142 1.024586) (xy -0.628387 0.862542) (xy -0.601997 0.801514)
    (xy -0.578679 0.747705) (xy -0.559741 0.704129) (xy -0.546494 0.673799) (xy -0.540249 0.65973)
    (xy -0.539948 0.65912) (xy -0.527484 0.657176) (xy -0.494361 0.653451) (xy -0.44517 0.648426)
    (xy -0.384507 0.642582) (xy -0.363225 0.640599) (xy -0.169774 0.627804) (xy 0.005014 0.627023)
    (xy 0.163381 0.638247)) (layer F.SilkS) (width 0.01))
  (fp_poly (pts (xy 2.088649 0.68587) (xy 2.262325 0.689822) (xy 2.415917 0.696414) (xy 2.552016 0.705868)
    (xy 2.673212 0.718407) (xy 2.782093 0.734252) (xy 2.88125 0.753625) (xy 2.973273 0.776748)
    (xy 2.974401 0.777065) (xy 3.114494 0.824818) (xy 3.233474 0.883729) (xy 3.332519 0.954809)
    (xy 3.412805 1.039068) (xy 3.475511 1.137517) (xy 3.519904 1.245214) (xy 3.534124 1.305175)
    (xy 3.543907 1.380068) (xy 3.549181 1.463972) (xy 3.549871 1.550966) (xy 3.545902 1.635131)
    (xy 3.537202 1.710545) (xy 3.526368 1.762125) (xy 3.481785 1.881983) (xy 3.417621 1.988364)
    (xy 3.333796 2.08135) (xy 3.230232 2.161026) (xy 3.106851 2.227474) (xy 3.072753 2.242089)
    (xy 2.98333 2.276371) (xy 2.894096 2.305454) (xy 2.802049 2.329753) (xy 2.704189 2.349679)
    (xy 2.597518 2.365644) (xy 2.479033 2.378062) (xy 2.345737 2.387345) (xy 2.194627 2.393905)
    (xy 2.022704 2.398155) (xy 1.927626 2.399547) (xy 1.809776 2.401017) (xy 1.714819 2.402414)
    (xy 1.640248 2.403871) (xy 1.583557 2.405525) (xy 1.542239 2.407509) (xy 1.513788 2.409957)
    (xy 1.495698 2.413004) (xy 1.485463 2.416784) (xy 1.480576 2.421432) (xy 1.479554 2.423571)
    (xy 1.477454 2.439231) (xy 1.475506 2.47278) (xy 1.473814 2.520941) (xy 1.472479 2.580436)
    (xy 1.471604 2.647988) (xy 1.471369 2.684316) (xy 1.472196 2.799128) (xy 1.47615 2.897826)
    (xy 1.483846 2.985355) (xy 1.495894 3.066665) (xy 1.512909 3.146702) (xy 1.535503 3.230414)
    (xy 1.541487 3.250489) (xy 1.555895 3.30337) (xy 1.56117 3.336598) (xy 1.557325 3.350269)
    (xy 1.556772 3.350479) (xy 1.539575 3.353649) (xy 1.502568 3.359331) (xy 1.451033 3.366745)
    (xy 1.39025 3.375114) (xy 1.3843 3.375915) (xy 1.288562 3.385991) (xy 1.181061 3.392695)
    (xy 1.070099 3.395848) (xy 0.963981 3.39527) (xy 0.871011 3.390782) (xy 0.8382 3.387723)
    (xy 0.80249 3.382141) (xy 0.786253 3.373941) (xy 0.783554 3.360209) (xy 0.786157 3.341572)
    (xy 0.791316 3.307088) (xy 0.798254 3.261893) (xy 0.805214 3.217334) (xy 0.820474 3.100587)
    (xy 0.832465 2.964899) (xy 0.841186 2.810036) (xy 0.84664 2.635765) (xy 0.848826 2.441855)
    (xy 0.847746 2.228072) (xy 0.843401 1.994183) (xy 0.835792 1.739957) (xy 0.831476 1.630854)
    (xy 1.478687 1.630854) (xy 1.478943 1.718046) (xy 1.481062 1.780646) (xy 1.489649 1.947334)
    (xy 1.744949 1.947308) (xy 1.837974 1.9467) (xy 1.936336 1.945029) (xy 2.031958 1.942503)
    (xy 2.116763 1.939327) (xy 2.1717 1.936437) (xy 2.32431 1.922943) (xy 2.45413 1.90285)
    (xy 2.562743 1.875513) (xy 2.651732 1.840291) (xy 2.72268 1.79654) (xy 2.77717 1.743618)
    (xy 2.816785 1.680882) (xy 2.82046 1.673007) (xy 2.833033 1.641396) (xy 2.84044 1.610591)
    (xy 2.843507 1.574108) (xy 2.843061 1.52546) (xy 2.842161 1.502834) (xy 2.836528 1.434856)
    (xy 2.824901 1.382418) (xy 2.804793 1.340093) (xy 2.773719 1.302457) (xy 2.734751 1.268449)
    (xy 2.685135 1.234094) (xy 2.628569 1.205103) (xy 2.562803 1.181112) (xy 2.485588 1.161759)
    (xy 2.394674 1.146681) (xy 2.287811 1.135516) (xy 2.162749 1.127899) (xy 2.017239 1.123469)
    (xy 1.849031 1.121863) (xy 1.825866 1.121842) (xy 1.524483 1.121834) (xy 1.518691 1.145646)
    (xy 1.508402 1.199672) (xy 1.499208 1.270387) (xy 1.491375 1.353329) (xy 1.485168 1.44403)
    (xy 1.48085 1.538027) (xy 1.478687 1.630854) (xy 0.831476 1.630854) (xy 0.824919 1.46516)
    (xy 0.813741 1.227719) (xy 0.808862 1.12661) (xy 0.804663 1.032025) (xy 0.801212 0.946052)
    (xy 0.798575 0.870781) (xy 0.796818 0.808301) (xy 0.796009 0.760699) (xy 0.796213 0.730066)
    (xy 0.797497 0.718489) (xy 0.814052 0.715161) (xy 0.853079 0.711617) (xy 0.911654 0.707948)
    (xy 0.986852 0.704246) (xy 1.075746 0.700602) (xy 1.175414 0.697107) (xy 1.282929 0.693852)
    (xy 1.395367 0.690929) (xy 1.509803 0.688429) (xy 1.623311 0.686443) (xy 1.732968 0.685062)
    (xy 1.835847 0.684377) (xy 1.8923 0.684337) (xy 2.088649 0.68587)) (layer F.SilkS) (width 0.01))
  (fp_poly (pts (xy 8.891674 0.727069) (xy 8.896556 0.755424) (xy 8.900518 0.798128) (xy 8.903536 0.851406)
    (xy 8.905591 0.911484) (xy 8.906659 0.974588) (xy 8.906719 1.036943) (xy 8.90575 1.094774)
    (xy 8.903729 1.144307) (xy 8.900635 1.181768) (xy 8.896446 1.203383) (xy 8.894438 1.206762)
    (xy 8.877647 1.209663) (xy 8.842224 1.20985) (xy 8.794717 1.207373) (xy 8.7757 1.20582)
    (xy 8.565058 1.189545) (xy 8.330953 1.17627) (xy 8.075078 1.166069) (xy 7.799126 1.159018)
    (xy 7.663302 1.156817) (xy 7.179555 1.150344) (xy 7.171177 1.232936) (xy 7.168643 1.268843)
    (xy 7.166416 1.321274) (xy 7.164621 1.385589) (xy 7.163381 1.457145) (xy 7.16282 1.531302)
    (xy 7.1628 1.547636) (xy 7.1628 1.779744) (xy 7.705725 1.773498) (xy 7.834878 1.771943)
    (xy 7.968075 1.770214) (xy 8.100519 1.768382) (xy 8.227412 1.766518) (xy 8.343955 1.764692)
    (xy 8.445349 1.762975) (xy 8.526798 1.761439) (xy 8.536089 1.761247) (xy 8.823528 1.755243)
    (xy 8.821839 1.949184) (xy 8.821859 2.016728) (xy 8.822974 2.082092) (xy 8.825019 2.140252)
    (xy 8.827829 2.186186) (xy 8.830441 2.210274) (xy 8.840733 2.277423) (xy 8.735191 2.270802)
    (xy 8.591929 2.263102) (xy 8.427466 2.256543) (xy 8.24597 2.251225) (xy 8.051612 2.24725)
    (xy 7.848559 2.24472) (xy 7.640979 2.243735) (xy 7.62186 2.243726) (xy 7.16017 2.243667)
    (xy 7.16466 2.581455) (xy 7.16603 2.66402) (xy 7.167809 2.739753) (xy 7.169897 2.806069)
    (xy 7.17219 2.860385) (xy 7.174587 2.900118) (xy 7.176987 2.922683) (xy 7.178266 2.926836)
    (xy 7.193102 2.92848) (xy 7.230351 2.929062) (xy 7.287062 2.928674) (xy 7.360284 2.927407)
    (xy 7.447069 2.925352) (xy 7.544466 2.9226) (xy 7.649524 2.919243) (xy 7.759294 2.915371)
    (xy 7.870825 2.911075) (xy 7.981168 2.906448) (xy 8.087373 2.901579) (xy 8.186488 2.896561)
    (xy 8.22325 2.894545) (xy 8.320719 2.889298) (xy 8.426152 2.884012) (xy 8.530916 2.879096)
    (xy 8.626376 2.874956) (xy 8.694213 2.872334) (xy 8.898477 2.865113) (xy 8.913719 2.927453)
    (xy 8.934408 3.052394) (xy 8.938985 3.1925) (xy 8.935081 3.270749) (xy 8.925995 3.391959)
    (xy 6.539045 3.391959) (xy 6.548639 3.243792) (xy 6.551386 3.187552) (xy 6.553664 3.112789)
    (xy 6.555483 3.022145) (xy 6.556852 2.918261) (xy 6.557781 2.803775) (xy 6.558278 2.681331)
    (xy 6.558353 2.553567) (xy 6.558016 2.423124) (xy 6.557275 2.292645) (xy 6.556141 2.164768)
    (xy 6.554622 2.042134) (xy 6.552728 1.927385) (xy 6.550468 1.823161) (xy 6.547852 1.732103)
    (xy 6.544888 1.65685) (xy 6.542878 1.61925) (xy 6.536051 1.509794) (xy 6.528867 1.398112)
    (xy 6.521515 1.286893) (xy 6.514185 1.178827) (xy 6.507066 1.076602) (xy 6.500347 0.982909)
    (xy 6.494217 0.900436) (xy 6.488865 0.831873) (xy 6.48448 0.779908) (xy 6.482122 0.75518)
    (xy 6.474267 0.679568) (xy 7.501158 0.681097) (xy 7.665374 0.681232) (xy 7.825846 0.681154)
    (xy 7.980231 0.680877) (xy 8.12619 0.680414) (xy 8.261381 0.679778) (xy 8.383463 0.678984)
    (xy 8.490094 0.678045) (xy 8.578934 0.676974) (xy 8.647641 0.675784) (xy 8.693874 0.674491)
    (xy 8.701641 0.674153) (xy 8.875232 0.66568) (xy 8.891674 0.727069)) (layer F.SilkS) (width 0.01))
  (fp_poly (pts (xy 4.681921 -2.581948) (xy 4.835313 -2.572281) (xy 4.972987 -2.555193) (xy 5.099251 -2.530003)
    (xy 5.218417 -2.496026) (xy 5.329223 -2.454886) (xy 5.46911 -2.387703) (xy 5.588856 -2.308967)
    (xy 5.691 -2.216554) (xy 5.778085 -2.108343) (xy 5.816614 -2.047922) (xy 5.876913 -1.927434)
    (xy 5.925795 -1.791371) (xy 5.963085 -1.643138) (xy 5.988609 -1.486139) (xy 6.002195 -1.323778)
    (xy 6.003669 -1.159462) (xy 5.992858 -0.996592) (xy 5.969587 -0.838576) (xy 5.933683 -0.688816)
    (xy 5.892038 -0.567897) (xy 5.823711 -0.428369) (xy 5.73641 -0.301361) (xy 5.631328 -0.188046)
    (xy 5.509655 -0.089595) (xy 5.372585 -0.00718) (xy 5.276883 0.036792) (xy 5.176265 0.075527)
    (xy 5.080764 0.106544) (xy 4.985605 0.130646) (xy 4.886017 0.148638) (xy 4.777224 0.161324)
    (xy 4.654455 0.16951) (xy 4.512934 0.174) (xy 4.4577 0.174851) (xy 4.366545 0.175479)
    (xy 4.277906 0.175232) (xy 4.196946 0.174188) (xy 4.12883 0.172426) (xy 4.078721 0.170027)
    (xy 4.064 0.168818) (xy 3.870896 0.143088) (xy 3.698774 0.106846) (xy 3.546271 0.059642)
    (xy 3.41202 0.001026) (xy 3.294659 -0.069452) (xy 3.256491 -0.097651) (xy 3.168553 -0.175492)
    (xy 3.093264 -0.262721) (xy 3.030127 -0.360728) (xy 2.97864 -0.470908) (xy 2.938306 -0.594651)
    (xy 2.908624 -0.733352) (xy 2.889095 -0.888402) (xy 2.879435 -1.057441) (xy 3.533538 -1.057441)
    (xy 3.543538 -0.916116) (xy 3.565473 -0.792199) (xy 3.599977 -0.684787) (xy 3.647684 -0.59298)
    (xy 3.709228 -0.515877) (xy 3.785242 -0.452578) (xy 3.87636 -0.40218) (xy 3.983216 -0.363783)
    (xy 4.106444 -0.336486) (xy 4.159744 -0.328567) (xy 4.22369 -0.323161) (xy 4.304506 -0.320723)
    (xy 4.395476 -0.321026) (xy 4.489886 -0.323847) (xy 4.581019 -0.32896) (xy 4.662159 -0.336141)
    (xy 4.726592 -0.345164) (xy 4.740916 -0.348032) (xy 4.868402 -0.384087) (xy 4.979406 -0.432923)
    (xy 5.07439 -0.49522) (xy 5.153817 -0.571658) (xy 5.218151 -0.662917) (xy 5.267855 -0.769675)
    (xy 5.303393 -0.892612) (xy 5.325227 -1.032408) (xy 5.333822 -1.189742) (xy 5.334 -1.2178)
    (xy 5.327548 -1.380921) (xy 5.30788 -1.526209) (xy 5.27453 -1.654142) (xy 5.22703 -1.765193)
    (xy 5.164913 -1.859839) (xy 5.087711 -1.938556) (xy 4.994958 -2.001819) (xy 4.886187 -2.050103)
    (xy 4.760929 -2.083885) (xy 4.618718 -2.103639) (xy 4.459087 -2.109842) (xy 4.4577 -2.109838)
    (xy 4.291699 -2.102073) (xy 4.143679 -2.079569) (xy 4.013001 -2.041886) (xy 3.899025 -1.988581)
    (xy 3.801112 -1.919213) (xy 3.718621 -1.833343) (xy 3.650914 -1.730528) (xy 3.59735 -1.610327)
    (xy 3.561924 -1.491948) (xy 3.555132 -1.454892) (xy 3.548446 -1.401996) (xy 3.542391 -1.338584)
    (xy 3.537491 -1.26998) (xy 3.53484 -1.217075) (xy 3.533538 -1.057441) (xy 2.879435 -1.057441)
    (xy 2.87922 -1.061193) (xy 2.87775 -1.153583) (xy 2.880996 -1.313898) (xy 2.892511 -1.457119)
    (xy 2.912963 -1.586348) (xy 2.943021 -1.704688) (xy 2.983353 -1.815241) (xy 3.034629 -1.921112)
    (xy 3.048468 -1.945871) (xy 3.108745 -2.04235) (xy 3.171771 -2.124147) (xy 3.242936 -2.197635)
    (xy 3.31029 -2.255481) (xy 3.43742 -2.345036) (xy 3.577618 -2.419871) (xy 3.732095 -2.480318)
    (xy 3.902061 -2.526709) (xy 4.088728 -2.559377) (xy 4.293305 -2.578656) (xy 4.5085 -2.584876)
    (xy 4.681921 -2.581948)) (layer F.SilkS) (width 0.01))
  (fp_poly (pts (xy 9.376907 -2.593326) (xy 9.445955 -2.583731) (xy 9.4615 -2.580153) (xy 9.497003 -2.571303)
    (xy 9.52465 -2.563576) (xy 9.545275 -2.554412) (xy 9.559712 -2.541252) (xy 9.568798 -2.521538)
    (xy 9.573368 -2.492712) (xy 9.574255 -2.452213) (xy 9.572297 -2.397483) (xy 9.568326 -2.325963)
    (xy 9.564754 -2.263759) (xy 9.555313 -2.090452) (xy 9.547416 -1.934474) (xy 9.540946 -1.792032)
    (xy 9.535787 -1.659332) (xy 9.531821 -1.532581) (xy 9.528933 -1.407987) (xy 9.527006 -1.281757)
    (xy 9.525923 -1.150097) (xy 9.525567 -1.009214) (xy 9.525568 -0.989541) (xy 9.525836 -0.854457)
    (xy 9.526649 -0.735767) (xy 9.528164 -0.628702) (xy 9.530538 -0.528493) (xy 9.53393 -0.430371)
    (xy 9.538497 -0.329565) (xy 9.544396 -0.221306) (xy 9.551785 -0.100824) (xy 9.558122 -0.003745)
    (xy 9.566664 0.124802) (xy 9.441057 0.133839) (xy 9.386255 0.136815) (xy 9.31595 0.139184)
    (xy 9.234589 0.140939) (xy 9.146617 0.142073) (xy 9.056481 0.142581) (xy 8.968624 0.142455)
    (xy 8.887494 0.141689) (xy 8.817535 0.140277) (xy 8.763194 0.138212) (xy 8.728915 0.135489)
    (xy 8.7249 0.134872) (xy 8.704161 0.129804) (xy 8.687113 0.120673) (xy 8.67023 0.103847)
    (xy 8.649986 0.075694) (xy 8.622857 0.032581) (xy 8.618191 0.024953) (xy 8.547943 -0.084535)
    (xy 8.462037 -0.208772) (xy 8.361463 -0.346522) (xy 8.247209 -0.496545) (xy 8.120265 -0.657605)
    (xy 7.981618 -0.828464) (xy 7.832259 -1.007884) (xy 7.673175 -1.194627) (xy 7.505357 -1.387455)
    (xy 7.348539 -1.564209) (xy 7.11835 -1.821377) (xy 7.106213 -1.760001) (xy 7.103423 -1.73476)
    (xy 7.100991 -1.690535) (xy 7.098912 -1.629506) (xy 7.097183 -1.553854) (xy 7.0958 -1.465758)
    (xy 7.094759 -1.3674) (xy 7.094056 -1.260959) (xy 7.093686 -1.148616) (xy 7.093646 -1.032551)
    (xy 7.093931 -0.914945) (xy 7.094539 -0.797977) (xy 7.095463 -0.683829) (xy 7.096702 -0.574681)
    (xy 7.09825 -0.472712) (xy 7.100104 -0.380104) (xy 7.102259 -0.299036) (xy 7.104712 -0.231689)
    (xy 7.107458 -0.180243) (xy 7.109165 -0.15875) (xy 7.115377 -0.09386) (xy 7.121641 -0.028787)
    (xy 7.127337 0.030057) (xy 7.131846 0.07626) (xy 7.132935 0.087313) (xy 7.136945 0.125264)
    (xy 7.137213 0.149819) (xy 7.129583 0.163275) (xy 7.109895 0.167931) (xy 7.073993 0.166086)
    (xy 7.017717 0.160039) (xy 7.00405 0.15857) (xy 6.967138 0.155632) (xy 6.910348 0.152327)
    (xy 6.83919 0.148918) (xy 6.759175 0.145668) (xy 6.675814 0.142842) (xy 6.675642 0.142837)
    (xy 6.423435 0.135185) (xy 6.431436 0.049072) (xy 6.441379 -0.073045) (xy 6.449966 -0.209258)
    (xy 6.457208 -0.357415) (xy 6.463115 -0.515359) (xy 6.467698 -0.680936) (xy 6.470966 -0.851991)
    (xy 6.472931 -1.026369) (xy 6.473602 -1.201915) (xy 6.472991 -1.376475) (xy 6.471106 -1.547893)
    (xy 6.46796 -1.714014) (xy 6.463561 -1.872684) (xy 6.457921 -2.021747) (xy 6.45105 -2.15905)
    (xy 6.442958 -2.282436) (xy 6.433655 -2.389751) (xy 6.423152 -2.478841) (xy 6.419149 -2.505604)
    (xy 6.411943 -2.550583) (xy 6.707996 -2.55182) (xy 6.797844 -2.552482) (xy 6.884267 -2.553646)
    (xy 6.962309 -2.555205) (xy 7.027013 -2.557052) (xy 7.073421 -2.559079) (xy 7.0866 -2.559987)
    (xy 7.146825 -2.562797) (xy 7.188926 -2.557892) (xy 7.219243 -2.543249) (xy 7.244114 -2.516848)
    (xy 7.250543 -2.507702) (xy 7.272914 -2.47658) (xy 7.307849 -2.430595) (xy 7.353345 -2.372225)
    (xy 7.4074 -2.303947) (xy 7.468013 -2.22824) (xy 7.533179 -2.147579) (xy 7.600896 -2.064443)
    (xy 7.669163 -1.981309) (xy 7.735977 -1.900654) (xy 7.799334 -1.824956) (xy 7.857233 -1.756693)
    (xy 7.863506 -1.749367) (xy 7.912794 -1.692338) (xy 7.974929 -1.621195) (xy 8.047451 -1.538715)
    (xy 8.127901 -1.447674) (xy 8.213818 -1.350852) (xy 8.302743 -1.251023) (xy 8.392215 -1.150966)
    (xy 8.479776 -1.053457) (xy 8.489678 -1.042458) (xy 8.90905 -0.576791) (xy 8.91285 -1.127125)
    (xy 8.9135 -1.34326) (xy 8.912294 -1.539422) (xy 8.909191 -1.716751) (xy 8.90415 -1.876386)
    (xy 8.897128 -2.019466) (xy 8.888084 -2.147132) (xy 8.876976 -2.260523) (xy 8.869187 -2.323041)
    (xy 8.861652 -2.380142) (xy 8.855131 -2.432733) (xy 8.850226 -2.475719) (xy 8.847541 -2.504003)
    (xy 8.847294 -2.50804) (xy 8.84555 -2.544871) (xy 8.94715 -2.570095) (xy 9.020111 -2.583761)
    (xy 9.106845 -2.59306) (xy 9.200074 -2.597848) (xy 9.292521 -2.597985) (xy 9.376907 -2.593326)) (layer F.SilkS) (width 0.01))
  (fp_poly (pts (xy -2.039395 -2.562444) (xy -2.010311 -2.559625) (xy -2.004405 -2.55706) (xy -1.993682 -2.533124)
    (xy -1.98473 -2.49167) (xy -1.977857 -2.436314) (xy -1.973366 -2.370669) (xy -1.971563 -2.298349)
    (xy -1.972754 -2.222969) (xy -1.973943 -2.196349) (xy -1.977227 -2.138856) (xy -1.980538 -2.089265)
    (xy -1.983593 -2.051217) (xy -1.986113 -2.028356) (xy -1.98731 -2.023381) (xy -2.000764 -2.023079)
    (xy -2.035404 -2.024511) (xy -2.087123 -2.027444) (xy -2.151816 -2.031647) (xy -2.218251 -2.036364)
    (xy -2.405786 -2.049175) (xy -2.586592 -2.059325) (xy -2.767539 -2.067077) (xy -2.955498 -2.072695)
    (xy -3.157338 -2.076442) (xy -3.303338 -2.078035) (xy -3.704725 -2.081378) (xy -3.712913 -1.954486)
    (xy -3.715741 -1.898931) (xy -3.718146 -1.829329) (xy -3.719944 -1.7528) (xy -3.720951 -1.676463)
    (xy -3.7211 -1.638106) (xy -3.7211 -1.44862) (xy -3.667125 -1.454224) (xy -3.644645 -1.45536)
    (xy -3.599234 -1.456627) (xy -3.533361 -1.457989) (xy -3.449494 -1.459409) (xy -3.350101 -1.460851)
    (xy -3.237652 -1.462277) (xy -3.114614 -1.463653) (xy -2.983456 -1.46494) (xy -2.8829 -1.465813)
    (xy -2.747567 -1.467016) (xy -2.618716 -1.468342) (xy -2.498791 -1.469755) (xy -2.390233 -1.471217)
    (xy -2.295484 -1.472691) (xy -2.216986 -1.474139) (xy -2.157181 -1.475525) (xy -2.118511 -1.47681)
    (xy -2.104879 -1.477682) (xy -2.057108 -1.483568) (xy -2.060429 -1.305347) (xy -2.06091 -1.238304)
    (xy -2.060037 -1.171437) (xy -2.057981 -1.110714) (xy -2.054911 -1.062106) (xy -2.052992 -1.04377)
    (xy -2.042233 -0.960415) (xy -2.173642 -0.96741) (xy -2.363638 -0.976198) (xy -2.572409 -0.983464)
    (xy -2.793381 -0.989049) (xy -3.019982 -0.992794) (xy -3.245639 -0.994543) (xy -3.30701 -0.994653)
    (xy -3.724769 -0.994833) (xy -3.718263 -0.655801) (xy -3.716439 -0.573134) (xy -3.714313 -0.497343)
    (xy -3.711992 -0.430996) (xy -3.709584 -0.376664) (xy -3.707196 -0.336914) (xy -3.704936 -0.314316)
    (xy -3.703763 -0.310107) (xy -3.689546 -0.308865) (xy -3.653278 -0.308548) (xy -3.598276 -0.309057)
    (xy -3.527859 -0.310295) (xy -3.445345 -0.312163) (xy -3.354053 -0.314562) (xy -3.257301 -0.317395)
    (xy -3.158407 -0.320564) (xy -3.06069 -0.323969) (xy -2.967468 -0.327514) (xy -2.88206 -0.331099)
    (xy -2.807784 -0.334627) (xy -2.747959 -0.337999) (xy -2.73685 -0.338725) (xy -2.674372 -0.342606)
    (xy -2.599756 -0.3467) (xy -2.516678 -0.350859) (xy -2.428812 -0.354936) (xy -2.339833 -0.358786)
    (xy -2.253416 -0.362262) (xy -2.173236 -0.365216) (xy -2.102967 -0.367503) (xy -2.046285 -0.368975)
    (xy -2.006864 -0.369487) (xy -1.98838 -0.368891) (xy -1.987515 -0.368623) (xy -1.982198 -0.356755)
    (xy -1.973256 -0.329625) (xy -1.96245 -0.292656) (xy -1.960383 -0.285153) (xy -1.951763 -0.241067)
    (xy -1.945092 -0.182594) (xy -1.940562 -0.115673) (xy -1.938364 -0.046242) (xy -1.938691 0.019758)
    (xy -1.941735 0.076388) (xy -1.947391 0.116417) (xy -1.955755 0.153459) (xy -3.144434 0.153459)
    (xy -3.31589 0.153403) (xy -3.480008 0.153243) (xy -3.635022 0.152985) (xy -3.779168 0.152637)
    (xy -3.910683 0.152207) (xy -4.027801 0.151704) (xy -4.128759 0.151134) (xy -4.211793 0.150506)
    (xy -4.275138 0.149828) (xy -4.31703 0.149106) (xy -4.335704 0.14835) (xy -4.336534 0.148167)
    (xy -4.337007 0.136648) (xy -4.336681 0.106641) (xy -4.335629 0.060811) (xy -4.333924 0.001824)
    (xy -4.331637 -0.067655) (xy -4.328841 -0.14496) (xy -4.327912 -0.169333) (xy -4.320818 -0.430267)
    (xy -4.318855 -0.709005) (xy -4.321949 -1.002635) (xy -4.330024 -1.308245) (xy -4.343006 -1.622922)
    (xy -4.36082 -1.943754) (xy -4.38114 -2.238249) (xy -4.387065 -2.317799) (xy -4.392307 -2.390174)
    (xy -4.396691 -2.452773) (xy -4.40004 -2.502997) (xy -4.402177 -2.538246) (xy -4.402925 -2.555921)
    (xy -4.402818 -2.557484) (xy -4.390067 -2.557646) (xy -4.35435 -2.557404) (xy -4.298093 -2.55679)
    (xy -4.223724 -2.555837) (xy -4.133671 -2.554578) (xy -4.03036 -2.553046) (xy -3.916221 -2.551274)
    (xy -3.793679 -2.549294) (xy -3.7719 -2.548935) (xy -3.579675 -2.546287) (xy -3.384138 -2.5446)
    (xy -3.188683 -2.543852) (xy -2.996703 -2.544018) (xy -2.811591 -2.545077) (xy -2.636742 -2.547003)
    (xy -2.475548 -2.549775) (xy -2.331403 -2.553368) (xy -2.2077 -2.55776) (xy -2.159 -2.560021)
    (xy -2.089803 -2.562592) (xy -2.039395 -2.562444)) (layer F.SilkS) (width 0.01))
  (fp_poly (pts (xy 2.133689 -2.596826) (xy 2.210966 -2.595605) (xy 2.274695 -2.593505) (xy 2.319756 -2.590505)
    (xy 2.329148 -2.589388) (xy 2.391346 -2.580568) (xy 2.383194 -2.388305) (xy 2.381466 -2.340134)
    (xy 2.37955 -2.273625) (xy 2.377506 -2.191605) (xy 2.375391 -2.0969) (xy 2.373266 -1.992337)
    (xy 2.371189 -1.880745) (xy 2.369221 -1.764949) (xy 2.367419 -1.647777) (xy 2.366863 -1.608666)
    (xy 2.364618 -1.359621) (xy 2.36516 -1.12984) (xy 2.368575 -0.917541) (xy 2.374946 -0.720942)
    (xy 2.384359 -0.53826) (xy 2.396899 -0.367714) (xy 2.41265 -0.20752) (xy 2.431697 -0.055897)
    (xy 2.445017 0.033439) (xy 2.45249 0.080931) (xy 2.458553 0.119988) (xy 2.462539 0.146276)
    (xy 2.4638 0.155431) (xy 2.451611 0.156254) (xy 2.417095 0.157003) (xy 2.36332 0.157651)
    (xy 2.29336 0.158172) (xy 2.210284 0.158541) (xy 2.117164 0.15873) (xy 2.07455 0.15875)
    (xy 1.685301 0.15875) (xy 1.693432 0.023813) (xy 1.702429 -0.14475) (xy 1.710153 -0.328382)
    (xy 1.716453 -0.521008) (xy 1.721177 -0.716551) (xy 1.724173 -0.908936) (xy 1.72529 -1.092086)
    (xy 1.724729 -1.227666) (xy 1.72085 -1.635125) (xy 1.570303 -1.39899) (xy 1.428083 -1.171469)
    (xy 1.295573 -0.950451) (xy 1.173895 -0.737951) (xy 1.064171 -0.535987) (xy 0.967523 -0.346573)
    (xy 0.885074 -0.171726) (xy 0.876914 -0.153458) (xy 0.841194 -0.072695) (xy 0.813195 -0.009404)
    (xy 0.791445 0.038677) (xy 0.774473 0.073807) (xy 0.760808 0.098248) (xy 0.748977 0.11426)
    (xy 0.73751 0.124104) (xy 0.724935 0.130039) (xy 0.70978 0.134327) (xy 0.690574 0.139229)
    (xy 0.68545 0.140674) (xy 0.650836 0.149439) (xy 0.615626 0.154858) (xy 0.573348 0.157364)
    (xy 0.517526 0.157386) (xy 0.4572 0.155856) (xy 0.350442 0.149752) (xy 0.267416 0.13875)
    (xy 0.207079 0.122626) (xy 0.168389 0.101154) (xy 0.159057 0.091431) (xy 0.147919 0.072815)
    (xy 0.130697 0.039115) (xy 0.109786 -0.004805) (xy 0.088624 -0.051699) (xy 0.049837 -0.13631)
    (xy 0.001378 -0.236025) (xy -0.05485 -0.347104) (xy -0.116945 -0.465808) (xy -0.183004 -0.5884)
    (xy -0.202781 -0.624416) (xy -0.223351 -0.660931) (xy -0.252287 -0.71116) (xy -0.288334 -0.773009)
    (xy -0.33024 -0.844383) (xy -0.376752 -0.923186) (xy -0.426617 -1.007325) (xy -0.478582 -1.094704)
    (xy -0.531395 -1.183227) (xy -0.583802 -1.270801) (xy -0.63455 -1.35533) (xy -0.682386 -1.434719)
    (xy -0.726058 -1.506874) (xy -0.764313 -1.569699) (xy -0.795897 -1.621099) (xy -0.819558 -1.658979)
    (xy -0.834043 -1.681246) (xy -0.837851 -1.686278) (xy -0.841307 -1.679153) (xy -0.844682 -1.653371)
    (xy -0.847914 -1.611443) (xy -0.850943 -1.555881) (xy -0.853708 -1.489194) (xy -0.856146 -1.413892)
    (xy -0.858198 -1.332487) (xy -0.859801 -1.247489) (xy -0.860896 -1.161408) (xy -0.861419 -1.076755)
    (xy -0.861311 -0.99604) (xy -0.860511 -0.921774) (xy -0.858956 -0.856468) (xy -0.858433 -0.841572)
    (xy -0.853154 -0.721663) (xy -0.846345 -0.597384) (xy -0.838274 -0.471998) (xy -0.829208 -0.348769)
    (xy -0.819418 -0.230958) (xy -0.80917 -0.121831) (xy -0.798733 -0.02465) (xy -0.788376 0.057322)
    (xy -0.780091 0.111125) (xy -0.772769 0.153459) (xy -1.52628 0.153459) (xy -1.518643 0.089959)
    (xy -1.51568 0.06089) (xy -1.51147 0.013193) (xy -1.5062 -0.050626) (xy -1.500057 -0.128062)
    (xy -1.49323 -0.216611) (xy -1.485906 -0.313768) (xy -1.478274 -0.417026) (xy -1.470521 -0.523882)
    (xy -1.462835 -0.63183) (xy -1.455404 -0.738364) (xy -1.448416 -0.840981) (xy -1.445216 -0.889)
    (xy -1.441324 -0.961678) (xy -1.437909 -1.054056) (xy -1.434996 -1.164671) (xy -1.432609 -1.292059)
    (xy -1.430774 -1.434757) (xy -1.429515 -1.591303) (xy -1.428857 -1.760231) (xy -1.428761 -1.857375)
    (xy -1.42875 -2.577041) (xy -0.599172 -2.579081) (xy -0.526635 -2.419311) (xy -0.433246 -2.222201)
    (xy -0.32627 -2.01182) (xy -0.207647 -1.791647) (xy -0.079316 -1.565164) (xy 0.056784 -1.33585)
    (xy 0.198713 -1.107187) (xy 0.24347 -1.037166) (xy 0.309252 -0.935209) (xy 0.364178 -0.850655)
    (xy 0.409178 -0.782155) (xy 0.445183 -0.728363) (xy 0.473121 -0.687932) (xy 0.493925 -0.659514)
    (xy 0.508523 -0.641762) (xy 0.517847 -0.633328) (xy 0.522706 -0.632754) (xy 0.534597 -0.647397)
    (xy 0.556269 -0.678377) (xy 0.586096 -0.723119) (xy 0.622448 -0.779049) (xy 0.663699 -0.843592)
    (xy 0.70822 -0.914175) (xy 0.754384 -0.988223) (xy 0.800562 -1.063162) (xy 0.845128 -1.136417)
    (xy 0.886453 -1.205414) (xy 0.908923 -1.243541) (xy 1.01087 -1.420565) (xy 1.10314 -1.587081)
    (xy 1.18867 -1.748848) (xy 1.270399 -1.911626) (xy 1.351265 -2.081173) (xy 1.434206 -2.263249)
    (xy 1.467759 -2.338916) (xy 1.572644 -2.577041) (xy 1.672147 -2.586813) (xy 1.723224 -2.590445)
    (xy 1.791465 -2.593319) (xy 1.87175 -2.595414) (xy 1.958962 -2.59671) (xy 2.047981 -2.597188)
    (xy 2.133689 -2.596826)) (layer F.SilkS) (width 0.01))
  (fp_poly (pts (xy -8.379246 -5.771758) (xy -8.37429 -5.757872) (xy -8.363964 -5.725582) (xy -8.348817 -5.676745)
    (xy -8.3294 -5.613218) (xy -8.306263 -5.53686) (xy -8.279955 -5.449526) (xy -8.251027 -5.353076)
    (xy -8.220029 -5.249365) (xy -8.187512 -5.140251) (xy -8.154024 -5.027592) (xy -8.120117 -4.913244)
    (xy -8.086341 -4.799066) (xy -8.053245 -4.686914) (xy -8.021379 -4.578646) (xy -7.991295 -4.476118)
    (xy -7.963541 -4.381189) (xy -7.938668 -4.295716) (xy -7.917227 -4.221556) (xy -7.899767 -4.160566)
    (xy -7.886838 -4.114603) (xy -7.87899 -4.085525) (xy -7.876751 -4.075215) (xy -7.886072 -4.080851)
    (xy -7.910771 -4.100036) (xy -7.948707 -4.13099) (xy -7.997741 -4.171934) (xy -8.055731 -4.221091)
    (xy -8.120538 -4.276682) (xy -8.152644 -4.304442) (xy -8.220104 -4.362433) (xy -8.282022 -4.414744)
    (xy -8.336217 -4.459602) (xy -8.380504 -4.495235) (xy -8.412702 -4.519872) (xy -8.430625 -4.531739)
    (xy -8.433485 -4.532413) (xy -8.440033 -4.519345) (xy -8.451417 -4.489731) (xy -8.466309 -4.447558)
    (xy -8.483379 -4.396814) (xy -8.501297 -4.341486) (xy -8.518733 -4.285562) (xy -8.534359 -4.233028)
    (xy -8.540276 -4.212166) (xy -8.555926 -4.137455) (xy -8.556116 -4.075916) (xy -8.539781 -4.023288)
    (xy -8.505858 -3.975305) (xy -8.473455 -3.944229) (xy -8.453537 -3.92819) (xy -8.430008 -3.911545)
    (xy -8.40171 -3.893808) (xy -8.367487 -3.874492) (xy -8.326179 -3.853111) (xy -8.27663 -3.829179)
    (xy -8.21768 -3.802208) (xy -8.148174 -3.771712) (xy -8.066951 -3.737206) (xy -7.972856 -3.698201)
    (xy -7.864729 -3.654213) (xy -7.741413 -3.604754) (xy -7.60175 -3.549338) (xy -7.444583 -3.487478)
    (xy -7.268753 -3.418689) (xy -7.073102 -3.342482) (xy -6.856473 -3.258373) (xy -6.658669 -3.181732)
    (xy -6.488581 -3.115509) (xy -6.339095 -3.056428) (xy -6.207473 -3.003283) (xy -6.090977 -2.954869)
    (xy -5.986868 -2.909978) (xy -5.892408 -2.867405) (xy -5.804858 -2.825943) (xy -5.721481 -2.784387)
    (xy -5.639537 -2.74153) (xy -5.556289 -2.696165) (xy -5.55625 -2.696144) (xy -5.447075 -2.634185)
    (xy -5.357666 -2.579879) (xy -5.285291 -2.531053) (xy -5.227221 -2.485535) (xy -5.180724 -2.441152)
    (xy -5.143069 -2.39573) (xy -5.111525 -2.347097) (xy -5.106553 -2.338316) (xy -5.077162 -2.279085)
    (xy -5.051486 -2.212879) (xy -5.028988 -2.137337) (xy -5.009131 -2.050098) (xy -4.99138 -1.9488)
    (xy -4.975195 -1.831082) (xy -4.960042 -1.694582) (xy -4.959916 -1.693333) (xy -4.944394 -1.530655)
    (xy -4.930454 -1.366907) (xy -4.918156 -1.203841) (xy -4.907555 -1.04321) (xy -4.898708 -0.886767)
    (xy -4.891673 -0.736264) (xy -4.886507 -0.593454) (xy -4.883267 -0.460089) (xy -4.88201 -0.337923)
    (xy -4.882793 -0.228707) (xy -4.885672 -0.134194) (xy -4.890706 -0.056137) (xy -4.897951 0.003711)
    (xy -4.903756 0.031579) (xy -4.917427 0.069293) (xy -4.937194 0.095909) (xy -4.965658 0.111638)
    (xy -5.005418 0.116688) (xy -5.059075 0.111268) (xy -5.129229 0.095587) (xy -5.218481 0.069855)
    (xy -5.25145 0.059548) (xy -5.405796 0.009246) (xy -5.572818 -0.047729) (xy -5.750442 -0.110529)
    (xy -5.936593 -0.178304) (xy -6.129196 -0.250203) (xy -6.326176 -0.325377) (xy -6.525458 -0.402977)
    (xy -6.724967 -0.482151) (xy -6.922629 -0.562052) (xy -7.116367 -0.641828) (xy -7.304107 -0.720631)
    (xy -7.483775 -0.79761) (xy -7.653295 -0.871916) (xy -7.810592 -0.942699) (xy -7.953591 -1.009108)
    (xy -8.080218 -1.070295) (xy -8.188397 -1.12541) (xy -8.276054 -1.173603) (xy -8.3058 -1.191299)
    (xy -8.384907 -1.243943) (xy -8.457358 -1.300093) (xy -8.518608 -1.355804) (xy -8.564113 -1.407132)
    (xy -8.578188 -1.42766) (xy -8.596228 -1.459183) (xy -8.6111 -1.49047) (xy -8.623157 -1.523999)
    (xy -8.632753 -1.562247) (xy -8.640242 -1.607692) (xy -8.645977 -1.662811) (xy -8.650312 -1.730081)
    (xy -8.653601 -1.811979) (xy -8.656197 -1.910983) (xy -8.657656 -1.984375) (xy -8.659356 -2.138423)
    (xy -8.658532 -2.275285) (xy -8.655221 -2.394291) (xy -8.649459 -2.494776) (xy -8.641283 -2.57607)
    (xy -8.630729 -2.637507) (xy -8.620204 -2.672901) (xy -8.607751 -2.699338) (xy -8.593122 -2.710803)
    (xy -8.567396 -2.712733) (xy -8.555642 -2.712239) (xy -8.520659 -2.706236) (xy -8.46718 -2.691658)
    (xy -8.39906 -2.66999) (xy -8.320151 -2.642718) (xy -8.234306 -2.611327) (xy -8.145378 -2.577301)
    (xy -8.057221 -2.542127) (xy -7.973686 -2.507289) (xy -7.898628 -2.474273) (xy -7.835899 -2.444565)
    (xy -7.789352 -2.419648) (xy -7.777515 -2.412281) (xy -7.750586 -2.39356) (xy -7.728714 -2.37496)
    (xy -7.71124 -2.354035) (xy -7.697502 -2.328341) (xy -7.686842 -2.295433) (xy -7.678598 -2.252867)
    (xy -7.67211 -2.198199) (xy -7.666718 -2.128985) (xy -7.661762 -2.042779) (xy -7.658172 -1.970463)
    (xy -7.653225 -1.871725) (xy -7.648456 -1.791647) (xy -7.643264 -1.727733) (xy -7.637048 -1.677485)
    (xy -7.629206 -1.638406) (xy -7.619138 -1.607999) (xy -7.606244 -1.583769) (xy -7.58992 -1.563218)
    (xy -7.569568 -1.543849) (xy -7.551925 -1.529107) (xy -7.513393 -1.501277) (xy -7.455514 -1.46427)
    (xy -7.380924 -1.419518) (xy -7.292256 -1.368453) (xy -7.192143 -1.312507) (xy -7.083219 -1.253113)
    (xy -6.968117 -1.191703) (xy -6.849471 -1.129708) (xy -6.729915 -1.06856) (xy -6.612082 -1.009693)
    (xy -6.498606 -0.954538) (xy -6.472358 -0.942034) (xy -6.332351 -0.878518) (xy -6.203972 -0.826148)
    (xy -6.088641 -0.785352) (xy -5.987778 -0.75656) (xy -5.902801 -0.7402) (xy -5.835129 -0.736699)
    (xy -5.80491 -0.740607) (xy -5.769379 -0.752486) (xy -5.744372 -0.76782) (xy -5.740709 -0.772103)
    (xy -5.735517 -0.788985) (xy -5.730173 -0.82394) (xy -5.724649 -0.87737) (xy -5.718918 -0.949679)
    (xy -5.712954 -1.041266) (xy -5.70673 -1.152535) (xy -5.700218 -1.283886) (xy -5.693392 -1.435723)
    (xy -5.688483 -1.552695) (xy -5.683773 -1.672805) (xy -5.680381 -1.773769) (xy -5.678409 -1.857582)
    (xy -5.67796 -1.926241) (xy -5.679134 -1.981743) (xy -5.682035 -2.026082) (xy -5.686765 -2.061256)
    (xy -5.693425 -2.08926) (xy -5.702117 -2.112091) (xy -5.712944 -2.131744) (xy -5.718513 -2.140045)
    (xy -5.752468 -2.18061) (xy -5.798274 -2.221718) (xy -5.857361 -2.264093) (xy -5.931159 -2.308461)
    (xy -6.021097 -2.355545) (xy -6.128605 -2.40607) (xy -6.255113 -2.460761) (xy -6.402051 -2.520342)
    (xy -6.570848 -2.585538) (xy -6.67385 -2.624174) (xy -6.826796 -2.681117) (xy -6.961553 -2.731499)
    (xy -7.083192 -2.777262) (xy -7.196784 -2.820349) (xy -7.307401 -2.862704) (xy -7.420114 -2.906267)
    (xy -7.539995 -2.952982) (xy -7.672113 -3.004791) (xy -7.821541 -3.063638) (xy -7.8359 -3.069301)
    (xy -8.014228 -3.139842) (xy -8.171278 -3.202486) (xy -8.308888 -3.258112) (xy -8.428895 -3.3076)
    (xy -8.533137 -3.351828) (xy -8.62345 -3.391675) (xy -8.701671 -3.428022) (xy -8.769637 -3.461746)
    (xy -8.829186 -3.493727) (xy -8.882155 -3.524844) (xy -8.930379 -3.555976) (xy -8.975698 -3.588002)
    (xy -9.019946 -3.621802) (xy -9.062685 -3.656371) (xy -9.130707 -3.715953) (xy -9.181247 -3.769487)
    (xy -9.218094 -3.822488) (xy -9.245043 -3.880471) (xy -9.265884 -3.948952) (xy -9.267034 -3.953559)
    (xy -9.27941 -4.037984) (xy -9.276999 -4.132811) (xy -9.259537 -4.239278) (xy -9.226758 -4.358622)
    (xy -9.178399 -4.49208) (xy -9.125343 -4.616441) (xy -9.107007 -4.657951) (xy -9.093089 -4.691214)
    (xy -9.085372 -4.711867) (xy -9.084506 -4.716449) (xy -9.096075 -4.712427) (xy -9.126622 -4.699696)
    (xy -9.172839 -4.679693) (xy -9.231412 -4.653858) (xy -9.299032 -4.623628) (xy -9.322201 -4.613189)
    (xy -9.444349 -4.558075) (xy -9.54594 -4.512334) (xy -9.628736 -4.475231) (xy -9.694496 -4.44603)
    (xy -9.744981 -4.423995) (xy -9.781952 -4.408393) (xy -9.807168 -4.398486) (xy -9.822391 -4.393541)
    (xy -9.82938 -4.392822) (xy -9.829897 -4.395594) (xy -9.825701 -4.401121) (xy -9.823019 -4.404021)
    (xy -9.811068 -4.415912) (xy -9.783783 -4.442601) (xy -9.74243 -4.482864) (xy -9.68827 -4.535476)
    (xy -9.622569 -4.599213) (xy -9.546589 -4.67285) (xy -9.461593 -4.755161) (xy -9.368846 -4.844924)
    (xy -9.26961 -4.940912) (xy -9.16515 -5.041901) (xy -9.093709 -5.110939) (xy -8.966353 -5.233888)
    (xy -8.854526 -5.341601) (xy -8.757283 -5.434952) (xy -8.673678 -5.514817) (xy -8.602767 -5.582069)
    (xy -8.543602 -5.637583) (xy -8.49524 -5.682234) (xy -8.456734 -5.716895) (xy -8.427139 -5.742442)
    (xy -8.405509 -5.759749) (xy -8.3909 -5.76969) (xy -8.382365 -5.773141) (xy -8.379246 -5.771758)) (layer F.SilkS) (width 0.01))
)
