(module INDUCTOR_0705 (layer F.Cu) (tedit 573B4258)
  (fp_text reference REF** (at 5.08 0 90) (layer F.SilkS)
    (effects (font (size 1 1) (thickness 0.15)))
  )
  (fp_text value INDUCTOR_0705 (at -5.08 0 90) (layer F.Fab)
    (effects (font (size 1 1) (thickness 0.15)))
  )
  (fp_line (start -3.81 5.08) (end -3.81 -5.08) (layer F.SilkS) (width 0.15))
  (fp_line (start 3.81 5.08) (end 3.81 -5.08) (layer F.SilkS) (width 0.15))
  (pad 2 smd rect (at 0 3.175) (size 7.5 3.5) (layers F.Cu F.Paste F.Mask))
  (pad 1 smd rect (at 0 -3.175) (size 7.5 3.5) (layers F.Cu F.Paste F.Mask))
)
