(module IRS-B210ST (layer F.Cu) (tedit 5A69A081)
  (attr smd)
  (fp_text reference REF** (at 0 -1.8796 180) (layer F.SilkS)
    (effects (font (size 0.6 0.6) (thickness 0.15)))
  )
  (fp_text value IRS-B210ST (at 0 1.905) (layer F.Fab)
    (effects (font (size 0.7 0.7) (thickness 0.15)))
  )
  (fp_line (start -2.4765 -2.3495) (end 2.2225 -2.3495) (layer F.Fab) (width 0.15))
  (fp_line (start -2.4765 -2.3495) (end -2.4765 2.3495) (layer F.Fab) (width 0.15))
  (fp_line (start 2.2225 -2.3495) (end 2.2225 2.3495) (layer F.Fab) (width 0.15))
  (fp_line (start -2.4765 2.3495) (end 2.2225 2.3495) (layer F.SilkS) (width 0.15))
  (fp_line (start -2.4765 2.3495) (end -2.4765 1.905) (layer F.SilkS) (width 0.15))
  (fp_line (start -2.4765 1.016) (end -2.4765 -1.016) (layer F.SilkS) (width 0.15))
  (fp_line (start -2.4765 -1.905) (end -2.4765 -2.3495) (layer F.SilkS) (width 0.15))
  (fp_line (start -2.4765 -2.3495) (end 2.2225 -2.3495) (layer F.SilkS) (width 0.15))
  (fp_line (start 2.2225 -2.3495) (end 2.2225 -1.143) (layer F.SilkS) (width 0.15))
  (fp_line (start 2.2225 1.143) (end 2.2225 2.3495) (layer F.SilkS) (width 0.15))
  (fp_line (start -0.862 -1.016) (end -0.862 -0.254) (layer F.SilkS) (width 0.15))
  (fp_line (start -0.862 -0.254) (end 0.662 -0.254) (layer F.SilkS) (width 0.15))
  (fp_line (start 0.662 -0.254) (end 0.662 -1.016) (layer F.SilkS) (width 0.15))
  (fp_line (start 0.662 -1.016) (end -0.862 -1.016) (layer F.SilkS) (width 0.15))
  (fp_line (start -0.862 0.254) (end -0.862 1.016) (layer F.SilkS) (width 0.15))
  (fp_line (start -0.862 1.016) (end 0.662 1.016) (layer F.SilkS) (width 0.15))
  (fp_line (start 0.662 1.016) (end 0.662 0.254) (layer F.SilkS) (width 0.15))
  (fp_line (start 0.662 0.254) (end -0.862 0.254) (layer F.SilkS) (width 0.15))
  (fp_line (start -1.624 -1.524) (end -1.624 1.524) (layer F.SilkS) (width 0.15))
  (fp_line (start -1.624 1.524) (end 1.424 1.524) (layer F.SilkS) (width 0.15))
  (fp_line (start 1.424 1.524) (end 1.424 -1.524) (layer F.SilkS) (width 0.15))
  (fp_line (start 1.424 -1.524) (end -1.624 -1.524) (layer F.SilkS) (width 0.15))
  (fp_text user %R (at 0 -1.778) (layer F.Fab)
    (effects (font (size 0.7 0.7) (thickness 0.15)))
  )
  (fp_line (start 2.2225 2.3495) (end -2.4765 2.3495) (layer F.Fab) (width 0.15))
  (fp_line (start -3.302 -2.413) (end -3.302 2.413) (layer F.CrtYd) (width 0.15))
  (fp_line (start -3.302 2.413) (end 3.1115 2.413) (layer F.CrtYd) (width 0.15))
  (fp_line (start 3.1115 2.413) (end 3.1115 -2.413) (layer F.CrtYd) (width 0.15))
  (fp_line (start 3.1115 -2.413) (end -3.302 -2.413) (layer F.CrtYd) (width 0.15))
  (pad 4 smd rect (at -2.54 -1.45) (size 1.2 0.7) (layers F.Cu F.Paste F.Mask))
  (pad 5 smd rect (at -2.54 1.45) (size 1.2 0.7) (layers F.Cu F.Paste F.Mask))
  (pad 2 smd rect (at 2.36 0) (size 1.2 0.55) (layers F.Cu F.Paste F.Mask))
  (pad 3 smd rect (at 2.36 -0.75) (size 1.2 0.55) (layers F.Cu F.Paste F.Mask))
  (pad 1 smd rect (at 2.36 0.75) (size 1.2 0.55) (layers F.Cu F.Paste F.Mask))
)
