(module LED-PLCC4 (layer F.Cu) (tedit 5783486E)
  (fp_text reference REF** (at 0 2.2) (layer F.SilkS)
    (effects (font (size 0.7 0.7) (thickness 0.15)))
  )
  (fp_text value LED-PLCC4 (at 0 -2.9) (layer F.Fab) hide
    (effects (font (size 1.5 1.5) (thickness 0.15)))
  )
  (fp_line (start -2.4 -1.6) (end -2.5 -1.5) (layer F.Fab) (width 0.1))
  (fp_line (start -2.5 -1.4) (end -2.3 -1.6) (layer F.Fab) (width 0.1))
  (fp_line (start -2.2 -1.6) (end -2.5 -1.3) (layer F.Fab) (width 0.1))
  (fp_line (start -2.5 -1.2) (end -2.1 -1.6) (layer F.Fab) (width 0.1))
  (fp_line (start -2 -1.6) (end -2.5 -1.1) (layer F.Fab) (width 0.1))
  (fp_line (start -2.5 -1) (end -1.9 -1.6) (layer F.Fab) (width 0.1))
  (fp_line (start -1.8 -1.6) (end -2.5 -0.9) (layer F.Fab) (width 0.1))
  (fp_line (start -2.5 -0.8) (end -1.7 -1.6) (layer F.Fab) (width 0.1))
  (fp_line (start -1.6 -1.6) (end -2.5 -0.7) (layer F.Fab) (width 0.1))
  (fp_line (start -2.5 -0.6) (end -1.5 -1.6) (layer F.Fab) (width 0.1))
  (fp_line (start -1.4 -1.6) (end -2.5 -0.5) (layer F.Fab) (width 0.1))
  (fp_line (start -2.5 -0.4) (end -1.3 -1.6) (layer F.Fab) (width 0.1))
  (fp_line (start 2.5 -1.6) (end 2.5 1.6) (layer F.Fab) (width 0.1))
  (fp_line (start 2.5 1.6) (end -2.5 1.6) (layer F.Fab) (width 0.1))
  (fp_line (start -2.5 1.6) (end -2.5 -1.6) (layer F.Fab) (width 0.1))
  (fp_line (start -2.5 -1.6) (end 2.5 -1.6) (layer F.Fab) (width 0.1))
  (fp_text user %R (at 0 0) (layer F.Fab)
    (effects (font (size 1.5 1.5) (thickness 0.15)))
  )
  (fp_line (start 2.5 -1.6) (end 2.5 1.6) (layer F.CrtYd) (width 0.05))
  (fp_line (start 2.5 1.6) (end -2.5 1.6) (layer F.CrtYd) (width 0.05))
  (fp_line (start -2.5 1.6) (end -2.5 -1.6) (layer F.CrtYd) (width 0.05))
  (fp_line (start -2.5 -1.6) (end 2.5 -1.6) (layer F.CrtYd) (width 0.05))
  (fp_line (start -2.5 -0.2) (end -2.5 -1.4) (layer F.SilkS) (width 0.15))
  (fp_line (start -0.5 -1.4) (end 0.5 -1.4) (layer F.SilkS) (width 0.15))
  (fp_line (start -0.5 1.4) (end 0.5 1.4) (layer F.SilkS) (width 0.15))
  (pad 3 smd rect (at -1.5 -0.8) (size 1.4 1.1) (layers F.Cu F.Paste F.Mask))
  (pad 4 smd rect (at -1.5 0.8) (size 1.4 1.1) (layers F.Cu F.Paste F.Mask))
  (pad 2 smd rect (at 1.5 0.8) (size 1.4 1.1) (layers F.Cu F.Paste F.Mask))
  (pad 1 smd rect (at 1.5 -0.8) (size 1.4 1.1) (layers F.Cu F.Paste F.Mask))
)
