(module LQFP-48_7x7mm_Pitch0.5mm_POWER placed (layer F.Cu) (tedit 56FCD3FD)
  (descr "48 LEAD LQFP 7x7mm (see MICREL LQFP7x7-48LD-PL-1.pdf)")
  (tags "QFP 0.5")
  (attr smd)
  (fp_text reference U5 (at 0 -6) (layer F.SilkS)
    (effects (font (size 1 1) (thickness 0.15)))
  )
  (fp_text value DP83848C (at 0 6) (layer F.Fab)
    (effects (font (size 1 1) (thickness 0.15)))
  )
  (fp_line (start -5.25 -5.25) (end -5.25 5.25) (layer F.CrtYd) (width 0.05))
  (fp_line (start 5.25 -5.25) (end 5.25 5.25) (layer F.CrtYd) (width 0.05))
  (fp_line (start -5.25 -5.25) (end 5.25 -5.25) (layer F.CrtYd) (width 0.05))
  (fp_line (start -5.25 5.25) (end 5.25 5.25) (layer F.CrtYd) (width 0.05))
  (fp_line (start -3.625 -3.625) (end -3.625 -3.1) (layer F.SilkS) (width 0.15))
  (fp_line (start 3.625 -3.625) (end 3.625 -3.1) (layer F.SilkS) (width 0.15))
  (fp_line (start 3.625 3.625) (end 3.625 3.1) (layer F.SilkS) (width 0.15))
  (fp_line (start -3.625 3.625) (end -3.625 3.1) (layer F.SilkS) (width 0.15))
  (fp_line (start -3.625 -3.625) (end -3.1 -3.625) (layer F.SilkS) (width 0.15))
  (fp_line (start -3.625 3.625) (end -3.1 3.625) (layer F.SilkS) (width 0.15))
  (fp_line (start 3.625 3.625) (end 3.1 3.625) (layer F.SilkS) (width 0.15))
  (fp_line (start 3.625 -3.625) (end 3.1 -3.625) (layer F.SilkS) (width 0.15))
  (fp_line (start -3.625 -3.1) (end -5 -3.1) (layer F.SilkS) (width 0.15))
  (pad 1 smd rect (at -4.35 -2.75) (size 1.3 0.25) (layers F.Cu F.Paste F.Mask))
  (pad 2 smd rect (at -4.35 -2.25) (size 1.3 0.25) (layers F.Cu F.Paste F.Mask))
  (pad 3 smd rect (at -4.35 -1.75) (size 1.3 0.25) (layers F.Cu F.Paste F.Mask))
  (pad 4 smd rect (at -4.35 -1.25) (size 1.3 0.25) (layers F.Cu F.Paste F.Mask))
  (pad 5 smd rect (at -4.35 -0.75) (size 1.3 0.25) (layers F.Cu F.Paste F.Mask))
  (pad 6 smd rect (at -4.35 -0.25) (size 1.3 0.25) (layers F.Cu F.Paste F.Mask))
  (pad 7 smd rect (at -4.35 0.25) (size 1.3 0.25) (layers F.Cu F.Paste F.Mask))
  (pad 8 smd rect (at -4.35 0.75) (size 1.3 0.25) (layers F.Cu F.Paste F.Mask))
  (pad 9 smd rect (at -4.35 1.25) (size 1.3 0.25) (layers F.Cu F.Paste F.Mask))
  (pad 10 smd rect (at -4.35 1.75) (size 1.3 0.25) (layers F.Cu F.Paste F.Mask))
  (pad 11 smd rect (at -4.35 2.25) (size 1.3 0.25) (layers F.Cu F.Paste F.Mask))
  (pad 12 smd rect (at -4.35 2.75) (size 1.3 0.25) (layers F.Cu F.Paste F.Mask))
  (pad 13 smd rect (at -2.75 4.35 90) (size 1.3 0.25) (layers F.Cu F.Paste F.Mask))
  (pad 14 smd rect (at -2.25 4.35 90) (size 1.3 0.25) (layers F.Cu F.Paste F.Mask))
  (pad 15 smd rect (at -1.75 4.35 90) (size 1.3 0.25) (layers F.Cu F.Paste F.Mask))
  (pad 16 smd rect (at -1.25 4.35 90) (size 1.3 0.25) (layers F.Cu F.Paste F.Mask))
  (pad 17 smd rect (at -0.75 4.35 90) (size 1.3 0.25) (layers F.Cu F.Paste F.Mask))
  (pad 18 smd rect (at -0.25 4.35 90) (size 1.3 0.25) (layers F.Cu F.Paste F.Mask))
  (pad 19 smd rect (at 0.25 4.35 90) (size 1.3 0.25) (layers F.Cu F.Paste F.Mask))
  (pad 20 smd rect (at 0.75 4.35 90) (size 1.3 0.25) (layers F.Cu F.Paste F.Mask))
  (pad 21 smd rect (at 1.25 4.35 90) (size 1.3 0.25) (layers F.Cu F.Paste F.Mask))
  (pad 22 smd rect (at 1.75 4.35 90) (size 1.3 0.25) (layers F.Cu F.Paste F.Mask))
  (pad 23 smd rect (at 2.25 4.35 90) (size 1.3 0.25) (layers F.Cu F.Paste F.Mask))
  (pad 24 smd rect (at 2.75 4.35 90) (size 1.3 0.25) (layers F.Cu F.Paste F.Mask))
  (pad 25 smd rect (at 4.35 2.75) (size 1.3 0.25) (layers F.Cu F.Paste F.Mask))
  (pad 26 smd rect (at 4.35 2.25) (size 1.3 0.25) (layers F.Cu F.Paste F.Mask))
  (pad 27 smd rect (at 4.35 1.75) (size 1.3 0.25) (layers F.Cu F.Paste F.Mask))
  (pad 28 smd rect (at 4.35 1.25) (size 1.3 0.25) (layers F.Cu F.Paste F.Mask))
  (pad 29 smd rect (at 4.35 0.75) (size 1.3 0.25) (layers F.Cu F.Paste F.Mask))
  (pad 30 smd rect (at 4.35 0.25) (size 1.3 0.25) (layers F.Cu F.Paste F.Mask))
  (pad 31 smd rect (at 4.35 -0.25) (size 1.3 0.25) (layers F.Cu F.Paste F.Mask))
  (pad 32 smd rect (at 4.35 -0.75) (size 1.3 0.25) (layers F.Cu F.Paste F.Mask))
  (pad 33 smd rect (at 4.35 -1.25) (size 1.3 0.25) (layers F.Cu F.Paste F.Mask))
  (pad 34 smd rect (at 4.35 -1.75) (size 1.3 0.25) (layers F.Cu F.Paste F.Mask))
  (pad 35 smd rect (at 4.35 -2.25) (size 1.3 0.25) (layers F.Cu F.Paste F.Mask))
  (pad 36 smd rect (at 4.35 -2.75) (size 1.3 0.25) (layers F.Cu F.Paste F.Mask))
  (pad 37 smd rect (at 2.75 -4.35 90) (size 1.3 0.25) (layers F.Cu F.Paste F.Mask))
  (pad 38 smd rect (at 2.25 -4.35 90) (size 1.3 0.25) (layers F.Cu F.Paste F.Mask))
  (pad 39 smd rect (at 1.75 -4.35 90) (size 1.3 0.25) (layers F.Cu F.Paste F.Mask))
  (pad 40 smd rect (at 1.25 -4.35 90) (size 1.3 0.25) (layers F.Cu F.Paste F.Mask))
  (pad 41 smd rect (at 0.75 -4.35 90) (size 1.3 0.25) (layers F.Cu F.Paste F.Mask))
  (pad 42 smd rect (at 0.25 -4.35 90) (size 1.3 0.25) (layers F.Cu F.Paste F.Mask))
  (pad 43 smd rect (at -0.25 -4.35 90) (size 1.3 0.25) (layers F.Cu F.Paste F.Mask))
  (pad 44 smd rect (at -0.75 -4.35 90) (size 1.3 0.25) (layers F.Cu F.Paste F.Mask))
  (pad 45 smd rect (at -1.25 -4.35 90) (size 1.3 0.25) (layers F.Cu F.Paste F.Mask))
  (pad 46 smd rect (at -1.75 -4.35 90) (size 1.3 0.25) (layers F.Cu F.Paste F.Mask))
  (pad 47 smd rect (at -2.25 -4.35 90) (size 1.3 0.25) (layers F.Cu F.Paste F.Mask))
  (pad 48 smd rect (at -2.75 -4.35 90) (size 1.3 0.25) (layers F.Cu F.Paste F.Mask))
  (pad 49 smd rect (at 0 0) (size 5 5) (layers F.Cu F.Paste F.Mask))
  (pad 49 thru_hole circle (at -2.032 -2.032) (size 0.7 0.7) (drill 0.3) (layers *.Cu))
  (pad 49 thru_hole circle (at -1.016 -2.032) (size 0.7 0.7) (drill 0.3) (layers *.Cu))
  (pad 49 thru_hole circle (at 0 -2.032) (size 0.7 0.7) (drill 0.3) (layers *.Cu))
  (pad 49 thru_hole circle (at 1.016 -2.032) (size 0.7 0.7) (drill 0.3) (layers *.Cu))
  (pad 49 thru_hole circle (at 2.032 -2.032) (size 0.7 0.7) (drill 0.3) (layers *.Cu))
  (pad 49 thru_hole circle (at 2.032 -1.016) (size 0.7 0.7) (drill 0.3) (layers *.Cu))
  (pad 49 thru_hole circle (at 2.032 0) (size 0.7 0.7) (drill 0.3) (layers *.Cu))
  (pad 49 thru_hole circle (at 2.032 1.016) (size 0.7 0.7) (drill 0.3) (layers *.Cu))
  (pad 49 thru_hole circle (at 2.032 2.032) (size 0.7 0.7) (drill 0.3) (layers *.Cu))
  (pad 49 thru_hole circle (at 1.016 2.032) (size 0.7 0.7) (drill 0.3) (layers *.Cu))
  (pad 49 thru_hole circle (at 0 2.032) (size 0.7 0.7) (drill 0.3) (layers *.Cu))
  (pad 49 thru_hole circle (at -1.016 2.032) (size 0.7 0.7) (drill 0.3) (layers *.Cu))
  (pad 49 thru_hole circle (at -2.032 2.032) (size 0.7 0.7) (drill 0.3) (layers *.Cu))
  (pad 49 thru_hole circle (at -2.032 1.016) (size 0.7 0.7) (drill 0.3) (layers *.Cu))
  (pad 49 thru_hole circle (at -1.016 1.016) (size 0.7 0.7) (drill 0.3) (layers *.Cu))
  (pad 49 thru_hole circle (at 0 1.016) (size 0.7 0.7) (drill 0.3) (layers *.Cu))
  (pad 49 thru_hole circle (at 1.016 1.016) (size 0.7 0.7) (drill 0.3) (layers *.Cu))
  (pad 49 thru_hole circle (at 1.016 0) (size 0.7 0.7) (drill 0.3) (layers *.Cu))
  (pad 49 thru_hole circle (at 0 0) (size 0.7 0.7) (drill 0.3) (layers *.Cu))
  (pad 49 thru_hole circle (at -1.016 0) (size 0.7 0.7) (drill 0.3) (layers *.Cu))
  (pad 49 thru_hole circle (at -2.032 0) (size 0.7 0.7) (drill 0.3) (layers *.Cu))
  (pad 49 thru_hole circle (at -2.032 -1.016) (size 0.7 0.7) (drill 0.3) (layers *.Cu))
  (pad 49 thru_hole circle (at -1.016 -1.016) (size 0.7 0.7) (drill 0.3) (layers *.Cu))
  (pad 49 thru_hole circle (at 0 -1.016) (size 0.7 0.7) (drill 0.3) (layers *.Cu))
  (pad 49 thru_hole circle (at 1.016 -1.016) (size 0.7 0.7) (drill 0.3) (layers *.Cu))
  (model Housings_QFP.3dshapes/LQFP-48_7x7mm_Pitch0.5mm.wrl
    (at (xyz 0 0 0))
    (scale (xyz 1 1 1))
    (rotate (xyz 0 0 0))
  )
)
