(module SOD323 (layer F.Cu) (tedit 5964C46D)
  (fp_text reference REF** (at 0 -1.42494) (layer F.SilkS)
    (effects (font (size 0.50038 0.50038) (thickness 0.09906)))
  )
  (fp_text value VAL** (at 0 1.47574) (layer F.SilkS)
    (effects (font (size 0.50038 0.50038) (thickness 0.12446)))
  )
  (fp_line (start -1.524 -0.8636) (end -1.524 0.8636) (layer F.SilkS) (width 0.20066))
  (fp_line (start -1.524 0.8636) (end 1.524 0.8636) (layer F.SilkS) (width 0.20066))
  (fp_line (start 1.524 0.8636) (end 1.524 -0.8636) (layer F.SilkS) (width 0.20066))
  (fp_line (start 1.524 -0.8636) (end -1.524 -0.8636) (layer F.SilkS) (width 0.20066))
  (pad 2 smd rect (at 1.0009 0) (size 0.65024 1.34874) (layers F.Cu F.Paste F.Mask))
  (pad 1 smd rect (at -1.0009 0) (size 0.65024 1.34874) (layers F.Cu F.Paste F.Mask))
)
