(module solitech_logotyp (layer F.Cu) (tedit 0)
  (fp_text reference G*** (at 0 0) (layer F.SilkS) hide
    (effects (font (size 1.524 1.524) (thickness 0.3)))
  )
  (fp_text value LOGO (at 0.75 0) (layer F.SilkS) hide
    (effects (font (size 1.524 1.524) (thickness 0.3)))
  )
  (fp_poly (pts (xy -3.836079 -2.944335) (xy -2.499985 -2.921) (xy -2.320056 -2.582333) (xy -1.99091 -1.962612)
    (xy -1.720909 -1.453838) (xy -1.516084 -1.067388) (xy -1.382467 -0.814635) (xy -1.351166 -0.755151)
    (xy -1.242684 -0.551313) (xy -1.172876 -0.423333) (xy -1.100653 -0.287883) (xy -0.977293 -0.051073)
    (xy -0.82857 0.237596) (xy -0.817968 0.258286) (xy -0.533866 0.812905) (xy -0.769356 1.274286)
    (xy -0.943823 1.618378) (xy -1.127515 1.984062) (xy -1.214632 2.159) (xy -1.355152 2.42768)
    (xy -1.486091 2.653812) (xy -1.545051 2.742095) (xy -1.619689 2.822074) (xy -1.690899 2.817789)
    (xy -1.791127 2.709231) (xy -1.936417 2.500709) (xy -2.139455 2.184867) (xy -2.3433 1.844848)
    (xy -2.421402 1.705947) (xy -2.554602 1.464216) (xy -2.692359 1.221887) (xy -2.855479 0.943471)
    (xy -3.064769 0.593476) (xy -3.341034 0.136412) (xy -3.35587 0.111939) (xy -3.553817 -0.217994)
    (xy -3.744453 -0.541501) (xy -3.888458 -0.79181) (xy -3.895323 -0.804056) (xy -4.051026 -1.06383)
    (xy -4.206289 -1.295029) (xy -4.243619 -1.34464) (xy -4.357465 -1.515996) (xy -4.402667 -1.634584)
    (xy -4.453333 -1.765264) (xy -4.518813 -1.856) (xy -4.619319 -1.99834) (xy -4.765072 -2.235539)
    (xy -4.903566 -2.478669) (xy -5.172173 -2.967671) (xy -3.836079 -2.944335)) (layer F.SilkS) (width 0.01))
  (fp_poly (pts (xy 1.133667 0.688039) (xy 1.434448 0.72066) (xy 1.580266 0.775948) (xy 1.586905 0.783167)
    (xy 1.669538 0.912856) (xy 1.802342 1.148084) (xy 1.966941 1.453294) (xy 2.144963 1.792932)
    (xy 2.318033 2.13144) (xy 2.467777 2.433264) (xy 2.57582 2.662846) (xy 2.623789 2.784632)
    (xy 2.624667 2.791334) (xy 2.540512 2.823285) (xy 2.289806 2.848104) (xy 1.875185 2.865674)
    (xy 1.299286 2.875876) (xy 0.677334 2.878667) (xy 0.049592 2.877576) (xy -0.428606 2.873389)
    (xy -0.777041 2.864733) (xy -1.015493 2.850237) (xy -1.163743 2.828527) (xy -1.241572 2.798232)
    (xy -1.268761 2.757979) (xy -1.27 2.74357) (xy -1.224105 2.581396) (xy -1.114857 2.383737)
    (xy -1.00719 2.211515) (xy -0.846887 1.935686) (xy -0.660435 1.60235) (xy -0.56009 1.418167)
    (xy -0.160465 0.677334) (xy 0.671401 0.677334) (xy 1.133667 0.688039)) (layer F.SilkS) (width 0.01))
  (fp_poly (pts (xy 1.994699 -2.810288) (xy 2.125477 -2.655436) (xy 2.257308 -2.464316) (xy 2.350167 -2.293121)
    (xy 2.370667 -2.21897) (xy 2.417138 -2.113433) (xy 2.533664 -1.931882) (xy 2.586897 -1.857949)
    (xy 2.771195 -1.580946) (xy 2.94536 -1.27606) (xy 2.969848 -1.227666) (xy 3.11319 -0.952694)
    (xy 3.292519 -0.629699) (xy 3.387827 -0.465666) (xy 3.577355 -0.14356) (xy 3.773913 0.194668)
    (xy 3.85664 0.338667) (xy 4.014757 0.611953) (xy 4.215272 0.953653) (xy 4.402989 1.27)
    (xy 4.596112 1.600683) (xy 4.781977 1.931232) (xy 4.915722 2.181246) (xy 5.03919 2.403868)
    (xy 5.142213 2.556233) (xy 5.174498 2.58841) (xy 5.243205 2.704654) (xy 5.249334 2.756664)
    (xy 5.221209 2.808072) (xy 5.120546 2.843235) (xy 4.92291 2.864894) (xy 4.603867 2.875789)
    (xy 4.161789 2.878667) (xy 3.703745 2.875857) (xy 3.384456 2.864863) (xy 3.173402 2.841833)
    (xy 3.040059 2.80292) (xy 2.953907 2.744272) (xy 2.934122 2.723833) (xy 2.824901 2.563703)
    (xy 2.794 2.463922) (xy 2.748849 2.338673) (xy 2.633265 2.132601) (xy 2.54 1.989667)
    (xy 2.396444 1.766396) (xy 2.304357 1.595094) (xy 2.286 1.53753) (xy 2.246439 1.425688)
    (xy 2.143253 1.216058) (xy 2.01416 0.981285) (xy 1.742319 0.508) (xy 0.864104 0.508)
    (xy 0.505846 0.502348) (xy 0.224618 0.487067) (xy 0.053881 0.464671) (xy 0.018576 0.4445)
    (xy 0.071538 0.333286) (xy 0.164595 0.131675) (xy 0.200404 0.053201) (xy 0.347814 -0.239994)
    (xy 0.521792 -0.546334) (xy 0.555773 -0.601283) (xy 0.680198 -0.815124) (xy 0.753611 -0.973645)
    (xy 0.762 -1.010073) (xy 0.806183 -1.121671) (xy 0.919532 -1.319409) (xy 1.016 -1.468534)
    (xy 1.158762 -1.694687) (xy 1.250906 -1.868723) (xy 1.27 -1.928877) (xy 1.314629 -2.053452)
    (xy 1.427162 -2.254189) (xy 1.575571 -2.483481) (xy 1.727827 -2.693725) (xy 1.851901 -2.837315)
    (xy 1.905 -2.872685) (xy 1.994699 -2.810288)) (layer F.SilkS) (width 0.01))
  (fp_poly (pts (xy 1.392821 -2.772833) (xy 1.321573 -2.603029) (xy 1.192029 -2.345603) (xy 1.042429 -2.074333)
    (xy 0.885099 -1.798776) (xy 0.756609 -1.569612) (xy 0.686287 -1.439333) (xy 0.525098 -1.121077)
    (xy 0.366281 -0.812873) (xy 0.234801 -0.562761) (xy 0.158315 -0.423333) (xy 0.075662 -0.27369)
    (xy -0.046159 -0.043904) (xy -0.101977 0.0635) (xy -0.252249 0.313382) (xy -0.376463 0.408003)
    (xy -0.495749 0.354726) (xy -0.587979 0.232834) (xy -0.674411 0.080343) (xy -0.814244 -0.183865)
    (xy -0.986411 -0.519427) (xy -1.129393 -0.804333) (xy -1.316349 -1.17259) (xy -1.49247 -1.505421)
    (xy -1.634909 -1.760403) (xy -1.70638 -1.875737) (xy -1.815946 -2.062316) (xy -1.862647 -2.199445)
    (xy -1.862666 -2.201049) (xy -1.911361 -2.333358) (xy -2.028815 -2.51283) (xy -2.032 -2.516897)
    (xy -2.138004 -2.657459) (xy -2.195513 -2.764913) (xy -2.188029 -2.843702) (xy -2.099057 -2.898274)
    (xy -1.912101 -2.933072) (xy -1.610664 -2.952542) (xy -1.178251 -2.961129) (xy -0.598365 -2.963279)
    (xy -0.375294 -2.963333) (xy 1.450744 -2.963333) (xy 1.392821 -2.772833)) (layer F.SilkS) (width 0.01))
)
