(module SW_PUSH_TACT_6.5x4.5 (layer F.Cu) (tedit 59A7CF9E)
  (fp_text reference REF** (at 0 -4.191) (layer F.SilkS)
    (effects (font (size 1 1) (thickness 0.15)))
  )
  (fp_text value SW_PUSH_TACT_6.5x4.5 (at 0 3.9878) (layer F.Fab)
    (effects (font (size 1 1) (thickness 0.15)))
  )
  (fp_line (start 2.7432 -2.9972) (end -2.667 -2.9972) (layer F.SilkS) (width 0.15))
  (fp_line (start 2.9972 -1.397) (end 2.9972 1.4478) (layer F.SilkS) (width 0.15))
  (fp_line (start -3.0028 -1.397) (end -3.0028 1.4478) (layer F.SilkS) (width 0.15))
  (fp_line (start 2.7686 2.9972) (end -2.667 2.9972) (layer F.SilkS) (width 0.15))
  (fp_circle (center 0 0.0254) (end 1.6256 0.2794) (layer F.SilkS) (width 0.15))
  (fp_circle (center 0 0) (end 0.8636 0.2286) (layer F.SilkS) (width 0.15))
  (pad 3 thru_hole circle (at 3.25 -2.25) (size 1.524 1.524) (drill 1) (layers *.Cu *.Mask))
  (pad 1 thru_hole circle (at -3.25 -2.25) (size 1.524 1.524) (drill 1) (layers *.Cu *.Mask))
  (pad 2 thru_hole circle (at -3.25 2.25) (size 1.524 1.524) (drill 1) (layers *.Cu *.Mask))
  (pad 4 thru_hole circle (at 3.25 2.25) (size 1.524 1.524) (drill 1) (layers *.Cu *.Mask))
)
