(module USBMCS1B5W (layer F.Cu) (tedit 57FCE4D2)
  (attr smd)
  (fp_text reference REF** (at 0 -1.778) (layer F.SilkS)
    (effects (font (size 1 1) (thickness 0.15)))
  )
  (fp_text value USBMCS1B5W (at 0 5.207) (layer F.Fab)
    (effects (font (size 1 1) (thickness 0.15)))
  )
  (fp_line (start -4.454 4.354) (end 4.436 4.354) (layer F.SilkS) (width 0.15))
  (fp_line (start 4.2 4.1) (end 4.454 4.354) (layer F.SilkS) (width 0.15))
  (fp_line (start -4.454 4.354) (end -4.2 4.1) (layer F.SilkS) (width 0.15))
  (fp_line (start 4.2 -0.889) (end 4.2 4.1) (layer F.SilkS) (width 0.15))
  (fp_line (start 0 -0.889) (end 4.2 -0.889) (layer F.SilkS) (width 0.15))
  (fp_line (start 0 -0.889) (end -4.2 -0.889) (layer F.SilkS) (width 0.15))
  (fp_line (start -4.2 4.1) (end -4.2 -0.889) (layer F.SilkS) (width 0.15))
  (fp_line (start 0 4.1) (end -4.2 4.1) (layer F.SilkS) (width 0.15))
  (fp_line (start 0 4.1) (end 4.2 4.1) (layer F.SilkS) (width 0.15))
  (pad "" smd rect (at -3.1115 2.55) (size 2.5 1.6) (layers F.Cu F.Paste F.Mask))
  (pad "" smd rect (at 3.1115 2.55) (size 2.5 1.6) (layers F.Cu F.Paste F.Mask))
  (pad "" np_thru_hole circle (at -2 0.35) (size 0.65 0.65) (drill 0.65) (layers *.Cu *.Mask F.SilkS))
  (pad "" np_thru_hole circle (at 2 0.35) (size 0.65 0.65) (drill 0.65) (layers *.Cu *.Mask F.SilkS))
  (pad 1 smd rect (at -1.3 -0.0635) (size 0.4 1.7) (layers F.Cu F.Paste F.Mask))
  (pad 2 smd rect (at -0.65 -0.0635) (size 0.4 1.7) (layers F.Cu F.Paste F.Mask))
  (pad 5 smd rect (at 1.3 -0.0635) (size 0.4 1.7) (layers F.Cu F.Paste F.Mask))
  (pad 4 smd rect (at 0.65 -0.0635) (size 0.4 1.7) (layers F.Cu F.Paste F.Mask))
  (pad 3 smd rect (at 0 -0.0635) (size 0.4 1.7) (layers F.Cu F.Paste F.Mask))
)
